   PER=666.67nS,   ChA: VOLTS,   ChB: VOLTS,,
-96.667uS,5.20,5.12,,
-96.000uS,5.20,5.12,,
-95.334uS,5.20,5.12,,
-94.667uS,5.20,5.12,,
-94.000uS,5.20,5.12,,
-93.334uS,5.20,5.12,,
-92.667uS,5.20,5.12,,
-92.000uS,5.20,5.12,,
-91.334uS,5.20,5.12,,
-90.667uS,5.20,5.12,,
-90.000uS,5.20,5.12,,
-89.334uS,5.20,5.12,,
-88.667uS,5.20,5.12,,
-88.000uS,5.20,5.12,,
-87.334uS,5.20,5.12,,
-86.667uS,5.20,5.12,,
-86.000uS,5.20,5.12,,
-85.334uS,5.20,5.12,,
-84.667uS,5.20,5.12,,
-84.000uS,5.20,5.12,,
-83.334uS,5.24,5.12,,
-82.667uS,5.20,5.12,,
-82.000uS,5.20,5.12,,
-81.334uS,5.20,5.12,,
-80.667uS,5.20,5.12,,
-80.000uS,5.20,5.12,,
-79.334uS,5.24,5.12,,
-78.667uS,5.20,5.12,,
-78.000uS,5.20,5.12,,
-77.334uS,5.20,5.12,,
-76.667uS,5.20,5.12,,
-76.000uS,5.20,5.12,,
-75.334uS,5.20,5.12,,
-74.667uS,5.20,5.12,,
-74.000uS,5.20,5.16,,
-73.334uS,5.20,5.12,,
-72.667uS,5.20,5.12,,
-72.000uS,5.20,5.12,,
-71.334uS,5.20,5.12,,
-70.667uS,5.20,5.12,,
-70.000uS,5.20,5.12,,
-69.334uS,5.20,5.12,,
-68.667uS,5.20,5.12,,
-68.000uS,5.20,5.12,,
-67.334uS,5.20,5.12,,
-66.667uS,5.20,5.12,,
-66.000uS,5.20,5.12,,
-65.334uS,5.20,5.12,,
-64.667uS,5.20,5.12,,
-64.000uS,5.20,5.12,,
-63.334uS,5.20,5.12,,
-62.667uS,5.20,5.12,,
-62.000uS,5.20,5.12,,
-61.334uS,5.20,5.12,,
-60.667uS,5.20,5.12,,
-60.000uS,5.20,5.12,,
-59.334uS,5.20,5.12,,
-58.667uS,5.20,5.12,,
-58.000uS,5.20,5.12,,
-57.334uS,5.20,5.12,,
-56.667uS,5.20,5.12,,
-56.000uS,5.20,5.12,,
-55.334uS,5.20,5.12,,
-54.667uS,5.20,5.12,,
-54.000uS,5.20,5.12,,
-53.334uS,5.20,5.12,,
-52.667uS,5.20,5.12,,
-52.000uS,5.20,5.12,,
-51.334uS,5.20,5.12,,
-50.667uS,5.20,5.12,,
-50.000uS,5.20,5.12,,
-49.334uS,5.20,5.12,,
-48.667uS,5.20,5.12,,
-48.000uS,5.20,5.12,,
-47.334uS,5.20,5.12,,
-46.667uS,5.20,5.12,,
-46.000uS,5.20,5.12,,
-45.334uS,5.20,5.12,,
-44.667uS,5.20,5.12,,
-44.000uS,5.20,5.12,,
-43.334uS,5.20,5.12,,
-42.667uS,5.20,5.12,,
-42.000uS,5.20,5.16,,
-41.334uS,5.20,5.12,,
-40.667uS,5.20,5.12,,
-40.000uS,5.20,5.12,,
-39.334uS,5.24,5.12,,
-38.667uS,5.20,5.12,,
-38.000uS,5.20,5.12,,
-37.334uS,5.20,5.12,,
-36.667uS,5.20,5.12,,
-36.000uS,5.20,5.12,,
-35.334uS,5.20,5.12,,
-34.667uS,5.20,5.12,,
-34.000uS,5.20,5.12,,
-33.334uS,5.20,5.12,,
-32.667uS,5.20,5.12,,
-32.000uS,5.20,5.08,,
-31.333uS,5.20,5.12,,
-30.667uS,5.20,5.12,,
-30.000uS,5.20,5.12,,
-29.333uS,5.20,5.12,,
-28.667uS,5.16,5.12,,
-28.000uS,5.20,5.12,,
-27.333uS,5.20,5.12,,
-26.667uS,5.20,5.12,,
-26.000uS,5.20,5.12,,
-25.333uS,5.20,5.12,,
-24.667uS,5.20,5.12,,
-24.000uS,5.20,5.12,,
-23.333uS,5.20,5.12,,
-22.667uS,5.20,5.12,,
-22.000uS,5.20,5.12,,
-21.333uS,5.20,5.12,,
-20.667uS,5.20,5.12,,
-20.000uS,5.20,5.12,,
-19.333uS,5.20,5.12,,
-18.667uS,5.20,5.12,,
-18.000uS,5.20,5.12,,
-17.333uS,5.20,5.12,,
-16.667uS,5.20,5.12,,
-16.000uS,5.20,5.12,,
-15.333uS,5.20,5.12,,
-14.667uS,5.20,5.12,,
-14.000uS,5.20,5.12,,
-13.333uS,5.20,5.12,,
-12.667uS,5.20,5.12,,
-12.000uS,5.20,5.12,,
-11.333uS,5.20,5.12,,
-10.667uS,2.32,5.00,,
-10.000uS,.600,5.08,,
-9.3334uS,.640,5.12,,
-8.6667uS,.640,5.12,,
-8.0000uS,.600,5.12,,
-7.3334uS,.640,5.12,,
-6.6667uS,.640,5.12,,
-6.0000uS,.600,5.12,,
-5.3334uS,.640,.640,,
-4.6667uS,.640,.680,,
-4.0000uS,.640,.640,,
-3.3334uS,.640,.640,,
-2.6667uS,.640,.600,,
-2.0000uS,.600,.600,,
-1.3333uS,.600,.560,,
-666.67nS,.800,.560,,
  0     ,4.12,.600,,
666.67nS,4.92,.600,,
1.3333uS,5.12,.600,,
2.0000uS,5.20,.560,,
2.6667uS,5.20,.600,,
3.3334uS,5.20,.560,,
4.0000uS,5.28,3.12,,
4.6667uS,5.28,4.84,,
5.3334uS,5.24,5.04,,
6.0000uS,5.20,5.08,,
6.6667uS,5.20,5.12,,
7.3334uS,5.20,5.12,,
8.0000uS,5.24,5.12,,
8.6667uS,5.24,5.12,,
9.3334uS,2.24,.680,,
10.000uS,.640,.680,,
10.667uS,.640,.680,,
11.333uS,.640,.640,,
12.000uS,.640,.640,,
12.667uS,.640,.600,,
13.333uS,.640,.600,,
14.000uS,.640,3.12,,
14.667uS,.600,4.84,,
15.333uS,.640,5.04,,
16.000uS,.600,5.08,,
16.667uS,.640,5.12,,
17.333uS,.640,5.12,,
18.000uS,.640,5.16,,
18.667uS,.640,5.12,,
19.333uS,1.88,.640,,
20.000uS,4.36,.680,,
20.667uS,5.00,.640,,
21.333uS,5.16,.640,,
22.000uS,5.20,.600,,
22.667uS,5.16,.680,,
23.333uS,5.20,.600,,
24.000uS,5.32,3.12,,
24.667uS,5.28,4.84,,
25.333uS,5.20,5.04,,
26.000uS,5.20,5.12,,
26.667uS,5.20,5.12,,
27.333uS,5.24,5.12,,
28.000uS,5.20,5.12,,
28.667uS,5.20,5.16,,
29.333uS,5.16,.680,,
30.000uS,5.20,.680,,
30.667uS,5.20,.640,,
31.333uS,5.20,.640,,
32.000uS,5.20,.640,,
32.667uS,5.20,.560,,
33.334uS,5.20,.600,,
34.000uS,5.32,3.12,,
34.667uS,5.24,4.84,,
35.334uS,5.24,5.04,,
36.000uS,5.20,5.08,,
36.667uS,5.20,5.12,,
37.334uS,5.20,5.12,,
38.000uS,5.20,5.12,,
38.667uS,5.20,5.12,,
39.334uS,5.12,.680,,
40.000uS,5.20,.600,,
40.667uS,5.20,.640,,
41.334uS,5.20,.600,,
42.000uS,5.20,.600,,
42.667uS,5.20,.600,,
43.334uS,5.20,.600,,
44.000uS,5.32,3.12,,
44.667uS,5.24,4.84,,
45.334uS,5.20,5.04,,
46.000uS,5.20,5.08,,
46.667uS,5.20,5.12,,
47.334uS,5.20,5.12,,
48.000uS,5.20,5.12,,
48.667uS,5.20,5.12,,
49.334uS,2.32,.680,,
50.000uS,.640,.680,,
50.667uS,.640,.640,,
51.334uS,.640,.640,,
52.000uS,.640,.640,,
52.667uS,.640,.600,,
53.334uS,.680,.600,,
54.000uS,.640,3.12,,
54.667uS,.600,4.84,,
55.334uS,.640,5.04,,
56.000uS,.640,5.08,,
56.667uS,.600,5.12,,
57.334uS,.600,5.12,,
58.000uS,.640,5.12,,
58.667uS,.640,5.12,,
59.334uS,1.84,.680,,
60.000uS,4.36,.680,,
60.667uS,5.00,.600,,
61.334uS,5.12,.640,,
62.000uS,5.20,.640,,
62.667uS,5.20,.640,,
63.334uS,5.20,.600,,
64.000uS,5.32,3.12,,
64.667uS,5.28,4.84,,
65.334uS,5.24,5.04,,
66.000uS,5.20,5.08,,
66.667uS,5.20,5.08,,
67.334uS,5.20,5.12,,
68.000uS,5.20,5.12,,
68.667uS,5.20,5.12,,
69.334uS,5.12,.640,,
70.000uS,5.20,.680,,
70.667uS,5.20,.640,,
71.334uS,5.20,.640,,
72.000uS,5.20,.640,,
72.667uS,5.20,.640,,
73.334uS,5.20,.600,,
74.000uS,5.32,3.08,,
74.667uS,5.28,4.84,,
75.334uS,5.24,5.04,,
76.000uS,5.20,5.08,,
76.667uS,5.20,5.12,,
77.334uS,5.20,5.12,,
78.000uS,5.20,5.08,,
78.667uS,5.20,5.12,,
79.334uS,5.12,.640,,
80.000uS,5.20,.640,,
80.667uS,5.20,.640,,
81.334uS,5.20,.600,,
82.000uS,5.20,.600,,
82.667uS,5.20,.600,,
83.334uS,5.20,.600,,
84.000uS,5.32,3.08,,
84.667uS,5.24,4.84,,
85.334uS,5.24,5.04,,
86.000uS,5.20,5.08,,
86.667uS,5.20,5.12,,
87.334uS,5.20,5.12,,
88.000uS,5.20,5.12,,
88.667uS,5.20,5.12,,
89.334uS,5.08,.680,,
90.000uS,5.16,.640,,
90.667uS,5.20,.640,,
91.334uS,5.20,.680,,
92.000uS,5.20,.600,,
92.667uS,5.20,.640,,
93.334uS,5.20,.600,,
94.000uS,4.72,.640,,
94.667uS,.600,.640,,
95.334uS,.640,.600,,
96.000uS,.640,.600,,
96.667uS,.600,.560,,
97.334uS,.640,.600,,
98.000uS,.640,.600,,
98.667uS,.640,2.96,,
99.334uS,.640,4.84,,
100.00uS,.600,5.04,,
100.67uS,.640,5.08,,
101.33uS,.640,5.12,,
102.00uS,.600,5.12,,
102.67uS,.640,5.16,,
103.33uS,.640,5.16,,
104.00uS,.680,5.16,,
104.67uS,4.04,5.20,,
105.33uS,4.88,5.20,,
106.00uS,5.12,5.16,,
106.67uS,5.20,5.16,,
107.33uS,5.20,5.16,,
108.00uS,5.20,5.16,,
108.67uS,5.20,5.16,,
109.33uS,5.20,5.16,,
110.00uS,5.20,5.16,,
110.67uS,5.20,5.16,,
111.33uS,5.20,5.12,,
112.00uS,5.24,5.12,,
112.67uS,5.20,5.12,,
113.33uS,5.20,5.12,,
114.00uS,5.20,5.12,,
114.67uS,5.20,5.12,,
115.33uS,5.24,5.12,,
116.00uS,5.20,5.12,,
116.67uS,5.20,5.12,,
117.33uS,5.20,5.12,,
118.00uS,5.20,5.12,,
118.67uS,5.20,5.12,,
119.33uS,5.20,5.12,,
120.00uS,5.20,5.12,,
120.67uS,5.20,5.12,,
121.33uS,5.20,5.12,,
122.00uS,5.20,5.12,,
122.67uS,5.20,5.12,,
123.33uS,5.20,5.12,,
124.00uS,5.20,5.12,,
124.67uS,5.20,5.12,,
125.33uS,5.20,5.12,,
126.00uS,5.20,5.12,,
126.67uS,5.20,5.12,,
127.33uS,5.20,5.12,,
128.00uS,5.20,5.12,,
128.67uS,5.20,5.12,,
129.33uS,5.20,5.12,,
130.00uS,5.20,5.12,,
130.67uS,5.20,5.12,,
131.33uS,5.20,5.12,,
132.00uS,5.20,5.12,,
132.67uS,5.20,5.12,,
133.33uS,5.20,5.12,,
134.00uS,5.20,5.12,,
134.67uS,5.20,5.12,,
135.33uS,5.20,5.12,,
136.00uS,5.20,5.12,,
136.67uS,5.20,5.12,,
137.33uS,5.20,5.12,,
138.00uS,5.20,5.12,,
138.67uS,5.20,5.12,,
139.33uS,5.20,5.12,,
140.00uS,5.20,5.12,,
140.67uS,5.20,5.12,,
141.33uS,5.20,5.12,,
142.00uS,5.20,5.12,,
142.67uS,5.20,5.12,,
143.33uS,5.20,5.12,,
144.00uS,5.20,5.12,,
144.67uS,5.20,5.12,,
145.33uS,5.20,5.12,,
146.00uS,5.20,5.12,,
146.67uS,5.20,5.12,,
147.33uS,5.20,5.12,,
148.00uS,5.20,5.12,,
148.67uS,5.20,5.12,,
149.33uS,5.20,5.12,,
150.00uS,5.20,5.12,,
150.67uS,5.20,5.12,,
151.33uS,5.20,5.12,,
152.00uS,5.20,5.12,,
152.67uS,5.20,5.16,,
153.33uS,5.20,5.12,,
154.00uS,5.20,5.12,,
154.67uS,5.16,5.12,,
155.33uS,5.20,5.12,,
156.00uS,5.20,5.12,,
156.67uS,5.20,5.12,,
157.33uS,5.20,5.12,,
158.00uS,5.20,5.12,,
158.67uS,5.20,5.12,,
159.33uS,5.20,5.12,,
160.00uS,5.20,5.12,,
160.67uS,5.20,5.12,,
161.33uS,5.20,5.12,,
162.00uS,5.20,5.12,,
162.67uS,5.20,5.12,,
163.33uS,5.20,5.12,,
164.00uS,5.20,5.12,,
164.67uS,5.20,5.12,,
165.33uS,5.20,5.12,,
166.00uS,5.20,5.12,,
166.67uS,5.20,5.12,,
167.33uS,5.20,5.12,,
168.00uS,5.20,5.12,,
168.67uS,5.20,5.12,,
169.33uS,5.20,5.12,,
170.00uS,5.20,5.12,,
170.67uS,5.20,5.12,,
171.33uS,5.20,5.12,,
172.00uS,5.20,5.12,,
172.67uS,5.20,5.12,,
173.33uS,5.16,5.12,,
174.00uS,5.20,5.12,,
174.67uS,5.20,5.12,,
175.33uS,5.20,5.12,,
176.00uS,5.20,5.12,,
176.67uS,5.20,5.12,,
177.33uS,5.20,5.12,,
178.00uS,5.20,5.12,,
178.67uS,5.20,5.12,,
179.33uS,5.20,5.12,,
180.00uS,5.20,5.12,,
180.67uS,5.20,5.12,,
181.33uS,5.20,5.12,,
182.00uS,5.20,5.12,,
182.67uS,5.20,5.12,,
183.33uS,5.20,5.12,,
184.00uS,5.20,5.12,,
184.67uS,5.20,5.12,,
185.33uS,5.20,5.12,,
186.00uS,5.20,5.12,,
186.67uS,5.20,5.12,,
187.33uS,5.20,5.12,,
188.00uS,5.20,5.12,,
188.67uS,5.20,5.12,,
189.33uS,5.20,5.12,,
190.00uS,5.20,5.12,,
190.67uS,5.20,5.12,,
191.33uS,5.20,5.12,,
192.00uS,5.20,5.12,,
192.67uS,5.20,5.12,,
193.33uS,5.20,5.12,,
194.00uS,5.20,5.12,,
194.67uS,5.20,5.12,,
195.33uS,5.20,5.12,,
196.00uS,5.20,5.12,,
196.67uS,5.20,5.12,,
197.33uS,5.20,5.16,,
198.00uS,5.20,5.12,,
198.67uS,5.20,5.12,,
199.33uS,5.20,5.12,,
200.00uS,5.20,5.12,,
200.67uS,5.20,5.12,,
201.33uS,5.20,5.12,,
202.00uS,5.20,5.12,,
202.67uS,5.20,5.16,,
203.33uS,5.20,5.12,,
204.00uS,5.20,5.12,,
204.67uS,5.20,5.12,,
205.33uS,5.20,5.12,,
206.00uS,5.20,5.12,,
206.67uS,5.20,5.12,,
207.33uS,5.20,5.12,,
208.00uS,5.20,5.12,,
208.67uS,5.20,5.12,,
209.33uS,5.20,5.12,,
210.00uS,5.20,5.12,,
210.67uS,5.20,5.12,,
211.33uS,5.20,5.12,,
212.00uS,5.20,5.12,,
212.67uS,5.20,5.12,,
213.33uS,5.20,5.12,,
214.00uS,5.20,5.12,,
214.67uS,5.20,5.12,,
215.33uS,5.20,5.12,,
216.00uS,5.20,5.12,,
216.67uS,5.20,5.12,,
217.33uS,5.20,5.12,,
218.00uS,5.20,5.12,,
218.67uS,5.20,5.12,,
219.33uS,5.20,5.12,,
220.00uS,5.20,5.12,,
220.67uS,5.20,5.12,,
221.33uS,5.20,5.12,,
222.00uS,5.20,5.12,,
222.67uS,5.20,5.12,,
223.33uS,5.20,5.12,,
224.00uS,5.20,5.16,,
224.67uS,5.20,5.12,,
225.33uS,5.20,5.12,,
226.00uS,5.20,5.12,,
226.67uS,5.20,5.12,,
227.33uS,5.20,5.12,,
228.00uS,5.20,5.12,,
228.67uS,5.20,5.12,,
229.33uS,5.20,5.12,,
230.00uS,5.20,5.12,,
230.67uS,5.20,5.12,,
231.33uS,5.20,5.12,,
232.00uS,5.20,5.16,,
232.67uS,5.20,5.12,,
233.33uS,5.20,5.12,,
234.00uS,5.20,5.12,,
234.67uS,5.20,5.12,,
235.33uS,5.20,5.12,,
236.00uS,5.20,5.12,,
236.67uS,5.20,5.12,,
237.33uS,5.20,5.12,,
238.00uS,5.20,5.12,,
238.67uS,5.24,5.12,,
239.33uS,5.20,5.12,,
240.00uS,5.20,5.12,,
240.67uS,5.20,5.12,,
241.33uS,5.20,5.12,,
242.00uS,5.20,5.12,,
242.67uS,5.20,5.12,,
243.33uS,5.20,5.12,,
244.00uS,5.20,5.12,,
244.67uS,5.20,5.12,,
245.33uS,5.20,5.16,,
246.00uS,5.20,5.12,,
246.67uS,5.20,5.12,,
247.33uS,5.20,5.12,,
248.00uS,5.20,5.12,,
248.67uS,5.20,5.12,,
249.33uS,5.20,5.12,,
250.00uS,5.20,5.12,,
250.67uS,5.20,5.12,,
251.33uS,5.20,5.12,,
252.00uS,5.20,5.12,,
252.67uS,5.20,5.12,,
253.33uS,5.20,5.12,,
254.00uS,5.20,5.12,,
254.67uS,5.20,5.12,,
255.33uS,5.20,5.12,,
256.00uS,5.20,5.12,,
256.67uS,5.20,5.12,,
257.33uS,5.20,5.12,,
258.00uS,5.20,5.16,,
258.67uS,5.20,5.12,,
259.33uS,5.20,5.12,,
260.00uS,5.20,5.12,,
260.67uS,5.20,5.12,,
261.33uS,5.20,5.12,,
262.00uS,5.20,5.12,,
262.67uS,5.20,5.12,,
263.33uS,5.20,5.12,,
264.00uS,5.20,5.12,,
264.67uS,5.20,5.12,,
265.33uS,5.20,5.12,,
266.00uS,5.20,5.12,,
266.67uS,5.20,5.12,,
267.33uS,5.20,5.12,,
268.00uS,5.20,5.12,,
268.67uS,5.20,5.16,,
269.33uS,5.20,5.12,,
270.00uS,5.20,5.12,,
270.67uS,5.20,5.12,,
271.33uS,5.20,5.12,,
272.00uS,5.20,5.12,,
272.67uS,5.20,5.12,,
273.33uS,5.20,5.12,,
274.00uS,5.20,5.12,,
274.67uS,5.20,5.12,,
275.33uS,5.20,5.12,,
276.00uS,5.20,5.12,,
276.67uS,5.20,5.12,,
277.33uS,5.20,5.12,,
278.00uS,5.20,5.12,,
278.67uS,5.20,5.12,,
279.33uS,5.20,5.12,,
280.00uS,5.20,5.12,,
280.67uS,5.20,5.12,,
281.33uS,5.20,5.12,,
282.00uS,5.20,5.12,,
282.67uS,5.20,5.12,,
283.33uS,5.20,5.12,,
284.00uS,5.20,5.12,,
284.67uS,5.20,5.12,,
285.33uS,5.20,5.12,,
286.00uS,5.20,5.12,,
286.67uS,5.20,5.12,,
287.33uS,5.20,5.12,,
288.00uS,5.20,5.12,,
288.67uS,5.20,5.12,,
289.33uS,5.20,5.12,,
290.00uS,5.20,5.12,,
290.67uS,5.20,5.12,,
291.33uS,5.20,5.12,,
292.00uS,5.20,5.12,,
292.67uS,5.20,5.12,,
293.33uS,5.20,5.12,,
294.00uS,5.20,5.12,,
294.67uS,5.20,5.12,,
295.33uS,5.20,5.12,,
296.00uS,5.20,5.12,,
296.67uS,5.20,5.16,,
297.33uS,5.20,5.12,,
298.00uS,5.20,5.12,,
298.67uS,5.20,5.12,,
299.33uS,5.20,5.12,,
300.00uS,5.20,5.12,,
300.67uS,5.20,5.12,,
301.33uS,5.20,5.12,,
302.00uS,5.20,5.12,,
302.67uS,5.20,5.12,,
303.33uS,5.20,5.12,,
304.00uS,5.20,5.12,,
304.67uS,5.20,5.12,,
305.33uS,5.20,5.12,,
306.00uS,5.20,5.12,,
306.67uS,5.20,5.12,,
307.33uS,5.20,5.12,,
308.00uS,5.20,5.12,,
308.67uS,5.20,5.12,,
309.33uS,5.20,5.12,,
310.00uS,5.20,5.12,,
310.67uS,5.20,5.12,,
311.33uS,5.20,5.12,,
312.00uS,5.20,5.12,,
312.67uS,5.16,5.12,,
313.33uS,5.20,5.12,,
314.00uS,5.20,5.12,,
314.67uS,5.20,5.12,,
315.33uS,5.20,5.12,,
316.00uS,5.20,5.08,,
316.67uS,5.20,5.12,,
317.33uS,5.20,5.12,,
318.00uS,5.20,5.12,,
318.67uS,5.20,5.12,,
319.33uS,5.20,5.12,,
320.00uS,5.20,5.12,,
320.67uS,5.20,5.12,,
321.33uS,5.20,5.12,,
322.00uS,5.20,5.12,,
322.67uS,5.20,5.12,,
323.33uS,5.20,5.12,,
324.00uS,5.20,5.12,,
324.67uS,5.20,5.12,,
325.33uS,5.20,5.12,,
326.00uS,5.20,5.12,,
326.67uS,5.20,5.12,,
327.33uS,5.20,5.12,,
328.00uS,5.20,5.12,,
328.67uS,5.20,5.12,,
329.33uS,5.20,5.12,,
330.00uS,5.20,5.12,,
330.67uS,5.20,5.12,,
331.33uS,5.20,5.12,,
332.00uS,5.20,5.12,,
332.67uS,5.20,5.12,,
333.34uS,5.20,5.12,,
334.00uS,5.20,5.12,,
334.67uS,5.20,5.12,,
335.34uS,5.20,5.12,,
336.00uS,5.20,5.12,,
336.67uS,5.20,5.12,,
337.34uS,5.20,5.12,,
338.00uS,5.20,5.16,,
338.67uS,5.20,5.12,,
339.34uS,5.20,5.12,,
340.00uS,5.20,5.12,,
340.67uS,5.20,5.12,,
341.34uS,5.20,5.12,,
342.00uS,5.20,5.12,,
342.67uS,5.20,5.12,,
343.34uS,5.20,5.12,,
344.00uS,5.20,5.12,,
344.67uS,5.20,5.12,,
345.34uS,5.20,5.12,,
346.00uS,5.20,5.12,,
346.67uS,5.20,5.12,,
347.34uS,5.20,5.12,,
348.00uS,5.20,5.12,,
348.67uS,5.20,5.12,,
349.34uS,5.20,5.12,,
350.00uS,5.20,5.12,,
350.67uS,5.20,5.12,,
351.34uS,5.20,5.12,,
352.00uS,5.20,5.12,,
352.67uS,5.20,5.12,,
353.34uS,5.20,5.12,,
354.00uS,5.20,5.12,,
354.67uS,5.20,5.12,,
355.34uS,5.20,5.12,,
356.00uS,5.20,5.12,,
356.67uS,5.20,5.12,,
357.34uS,5.20,5.12,,
358.00uS,5.20,5.12,,
358.67uS,5.20,5.12,,
359.34uS,5.20,5.12,,
360.00uS,5.20,5.12,,
360.67uS,5.20,5.12,,
361.34uS,5.20,5.12,,
362.00uS,5.20,5.12,,
362.67uS,5.20,5.12,,
363.34uS,5.20,5.12,,
364.00uS,5.16,5.12,,
364.67uS,5.20,5.12,,
365.34uS,5.20,5.12,,
366.00uS,5.20,5.12,,
366.67uS,5.20,5.12,,
367.34uS,5.20,5.12,,
368.00uS,5.20,5.12,,
368.67uS,5.20,5.12,,
369.34uS,5.20,5.12,,
370.00uS,5.20,5.12,,
370.67uS,5.20,5.12,,
371.34uS,5.20,5.12,,
372.00uS,5.20,5.12,,
372.67uS,5.20,5.12,,
373.34uS,5.20,5.12,,
374.00uS,5.20,5.12,,
374.67uS,5.20,5.12,,
375.34uS,5.20,5.12,,
376.00uS,5.20,5.12,,
376.67uS,5.20,5.12,,
377.34uS,5.20,5.12,,
378.00uS,5.20,5.12,,
378.67uS,5.20,5.12,,
379.34uS,5.20,5.12,,
380.00uS,5.20,5.12,,
380.67uS,5.20,5.12,,
381.34uS,5.20,5.12,,
382.00uS,5.20,5.12,,
382.67uS,5.20,5.12,,
383.34uS,5.20,5.12,,
384.00uS,5.20,5.12,,
384.67uS,5.20,5.12,,
385.34uS,5.20,5.12,,
386.00uS,5.20,5.12,,
386.67uS,5.20,5.12,,
387.34uS,5.20,5.12,,
388.00uS,5.20,5.12,,
388.67uS,5.20,5.12,,
389.34uS,5.20,5.12,,
390.00uS,5.20,5.12,,
390.67uS,5.20,5.12,,
391.34uS,5.20,5.12,,
392.00uS,5.20,5.12,,
392.67uS,5.20,5.12,,
393.34uS,5.20,5.12,,
394.00uS,5.20,5.12,,
394.67uS,5.20,5.12,,
395.34uS,5.20,5.12,,
396.00uS,5.20,5.12,,
396.67uS,5.20,5.12,,
397.34uS,5.20,5.12,,
398.00uS,5.20,5.12,,
398.67uS,5.20,5.12,,
399.34uS,5.20,5.12,,
400.00uS,5.20,5.12,,
400.67uS,5.20,5.16,,
401.34uS,5.20,5.12,,
402.00uS,5.20,5.12,,
402.67uS,5.20,5.12,,
403.34uS,5.20,5.12,,
404.00uS,5.20,5.12,,
404.67uS,5.20,5.12,,
405.34uS,5.20,5.12,,
406.00uS,5.20,5.12,,
406.67uS,5.20,5.12,,
407.34uS,5.20,5.12,,
408.00uS,5.20,5.12,,
408.67uS,5.20,5.12,,
409.34uS,5.20,5.12,,
410.00uS,5.20,5.12,,
410.67uS,5.20,5.12,,
411.34uS,5.20,5.12,,
412.00uS,5.20,5.12,,
412.67uS,5.20,5.12,,
413.34uS,5.20,5.12,,
414.00uS,5.20,5.12,,
414.67uS,5.20,5.12,,
415.34uS,5.20,5.12,,
416.00uS,5.20,5.12,,
416.67uS,5.20,5.12,,
417.34uS,5.20,5.12,,
418.00uS,5.20,5.12,,
418.67uS,5.20,5.12,,
419.34uS,5.20,5.12,,
420.00uS,5.20,5.12,,
420.67uS,5.20,5.12,,
421.34uS,5.20,5.12,,
422.00uS,5.20,5.12,,
422.67uS,5.20,5.12,,
423.34uS,5.20,5.12,,
424.00uS,5.20,5.12,,
424.67uS,5.20,5.12,,
425.34uS,5.20,5.12,,
426.00uS,5.20,5.12,,
426.67uS,5.20,5.12,,
427.34uS,5.20,5.12,,
428.00uS,5.20,5.12,,
428.67uS,5.20,5.12,,
429.34uS,5.20,5.12,,
430.00uS,5.20,5.12,,
430.67uS,5.20,5.12,,
431.34uS,5.20,5.12,,
432.00uS,5.20,5.12,,
432.67uS,5.20,5.12,,
433.34uS,5.20,5.12,,
434.00uS,5.20,5.12,,
434.67uS,5.20,5.12,,
435.34uS,5.20,5.12,,
436.00uS,5.20,5.12,,
436.67uS,5.20,5.12,,
437.34uS,5.20,5.12,,
438.00uS,5.20,5.12,,
438.67uS,5.20,5.12,,
439.34uS,5.20,5.12,,
440.00uS,5.20,5.16,,
440.67uS,5.20,5.12,,
441.34uS,5.20,5.12,,
442.00uS,5.20,5.12,,
442.67uS,5.20,5.12,,
443.34uS,5.20,5.12,,
444.00uS,5.20,5.12,,
444.67uS,5.20,5.12,,
445.34uS,5.20,5.12,,
446.00uS,5.20,5.12,,
446.67uS,5.20,5.12,,
447.34uS,5.20,5.12,,
448.00uS,5.20,5.12,,
448.67uS,5.20,5.12,,
449.34uS,5.20,5.12,,
450.00uS,5.20,5.12,,
450.67uS,5.20,5.12,,
451.34uS,5.20,5.12,,
452.00uS,5.20,5.12,,
452.67uS,5.20,5.12,,
453.34uS,5.20,5.12,,
454.00uS,5.20,5.12,,
454.67uS,5.20,5.12,,
455.34uS,5.20,5.12,,
456.00uS,5.20,5.12,,
456.67uS,5.20,5.12,,
457.34uS,5.20,5.12,,
458.00uS,5.20,5.12,,
458.67uS,5.20,5.12,,
459.34uS,5.20,5.12,,
460.00uS,5.20,5.12,,
460.67uS,5.20,5.12,,
461.34uS,5.20,5.12,,
462.00uS,5.20,5.12,,
462.67uS,5.24,5.12,,
463.34uS,5.20,5.12,,
464.00uS,5.20,5.12,,
464.67uS,5.20,5.12,,
465.34uS,5.20,5.12,,
466.00uS,5.20,5.12,,
466.67uS,5.20,5.12,,
467.34uS,5.20,5.12,,
468.00uS,5.20,5.12,,
468.67uS,5.20,5.12,,
469.34uS,5.20,5.12,,
470.00uS,5.20,5.12,,
470.67uS,5.20,5.12,,
471.34uS,5.20,5.12,,
472.00uS,5.20,5.12,,
472.67uS,5.20,5.12,,
473.34uS,5.20,5.12,,
474.00uS,5.20,5.12,,
474.67uS,5.20,5.12,,
475.34uS,5.20,5.12,,
476.00uS,5.20,5.12,,
476.67uS,5.20,5.12,,
477.34uS,5.20,5.12,,
478.00uS,5.20,5.12,,
478.67uS,5.20,5.12,,
479.34uS,5.20,5.12,,
480.00uS,5.20,5.16,,
480.67uS,5.20,5.12,,
481.34uS,5.20,5.12,,
482.00uS,5.20,5.12,,
482.67uS,5.20,5.12,,
483.34uS,5.20,5.12,,
484.00uS,5.20,5.12,,
484.67uS,5.20,5.16,,
485.34uS,5.20,5.12,,
486.00uS,5.20,5.12,,
486.67uS,5.20,5.12,,
487.34uS,5.20,5.12,,
488.00uS,5.20,5.12,,
488.67uS,5.20,5.12,,
489.34uS,5.20,5.12,,
490.00uS,5.20,5.12,,
490.67uS,5.20,5.12,,
491.34uS,5.20,5.12,,
492.00uS,5.20,5.12,,
492.67uS,5.20,5.12,,
493.34uS,5.20,5.12,,
494.00uS,5.20,5.12,,
494.67uS,5.20,5.12,,
495.34uS,5.20,5.12,,
496.00uS,5.20,5.12,,
496.67uS,5.20,5.12,,
497.34uS,5.16,5.12,,
498.00uS,5.20,5.12,,
498.67uS,5.20,5.12,,
499.34uS,5.20,5.12,,
500.00uS,5.20,5.12,,
500.67uS,5.20,5.12,,
501.34uS,5.20,5.12,,
502.00uS,5.20,5.12,,
502.67uS,5.20,5.12,,
503.34uS,5.20,5.12,,
504.00uS,5.20,5.12,,
504.67uS,5.20,5.12,,
505.34uS,5.20,5.12,,
506.00uS,5.20,5.12,,
506.67uS,5.20,5.12,,
507.34uS,5.20,5.12,,
508.00uS,5.20,5.12,,
508.67uS,5.20,5.12,,
509.34uS,5.20,5.12,,
510.00uS,5.20,5.12,,
510.67uS,5.20,5.12,,
511.34uS,5.20,5.12,,
512.00uS,5.20,5.12,,
512.67uS,5.20,5.12,,
513.34uS,5.20,5.12,,
514.00uS,5.20,5.12,,
514.67uS,5.20,5.12,,
515.34uS,5.20,5.12,,
516.00uS,5.20,5.12,,
516.67uS,5.20,5.12,,
517.34uS,5.20,5.12,,
518.00uS,5.20,5.12,,
518.67uS,5.20,5.12,,
519.34uS,5.20,5.12,,
520.00uS,5.20,5.12,,
520.67uS,5.20,5.12,,
521.34uS,5.20,5.12,,
522.00uS,5.20,5.12,,
522.67uS,5.20,5.12,,
523.34uS,5.20,5.12,,
524.00uS,5.20,5.12,,
524.67uS,5.20,5.12,,
525.34uS,5.20,5.12,,
526.00uS,5.20,5.12,,
526.67uS,5.20,5.12,,
527.34uS,5.20,5.12,,
528.00uS,5.20,5.12,,
528.67uS,5.20,5.12,,
529.34uS,5.20,5.12,,
530.00uS,5.20,5.12,,
530.67uS,5.20,5.12,,
531.34uS,5.20,5.12,,
532.00uS,5.20,5.12,,
532.67uS,5.20,5.12,,
533.34uS,5.20,5.12,,
534.00uS,5.20,5.12,,
534.67uS,5.20,5.12,,
535.34uS,5.20,5.12,,
536.00uS,5.20,5.12,,
536.67uS,5.20,5.12,,
537.34uS,5.20,5.12,,
538.00uS,5.20,5.12,,
538.67uS,5.20,5.12,,
539.34uS,5.20,5.12,,
540.00uS,5.20,5.12,,
540.67uS,5.20,5.12,,
541.34uS,5.20,5.12,,
542.00uS,5.20,5.12,,
542.67uS,5.20,5.12,,
543.34uS,5.20,5.12,,
544.00uS,5.20,5.12,,
544.67uS,5.20,5.12,,
545.34uS,5.20,5.12,,
546.00uS,5.20,5.12,,
546.67uS,5.20,5.12,,
547.34uS,5.20,5.12,,
548.00uS,5.20,5.12,,
548.67uS,5.20,5.12,,
549.34uS,5.20,5.16,,
550.00uS,5.20,5.12,,
550.67uS,5.20,5.12,,
551.34uS,5.20,5.12,,
552.00uS,5.20,5.12,,
552.67uS,5.20,5.12,,
553.34uS,5.20,5.12,,
554.00uS,5.20,5.12,,
554.67uS,5.16,5.12,,
555.34uS,5.16,5.12,,
556.00uS,5.20,5.12,,
556.67uS,5.20,5.12,,
557.34uS,5.20,5.12,,
558.00uS,5.20,5.12,,
558.67uS,5.20,5.12,,
559.34uS,5.20,5.12,,
560.00uS,5.20,5.12,,
560.67uS,5.20,5.12,,
561.34uS,5.20,5.12,,
562.00uS,5.20,5.12,,
562.67uS,5.20,5.12,,
563.34uS,5.20,5.12,,
564.00uS,5.20,5.12,,
564.67uS,5.20,5.12,,
565.34uS,5.20,5.12,,
566.00uS,5.20,5.12,,
566.67uS,5.20,5.12,,
567.34uS,5.20,5.12,,
568.00uS,5.20,5.12,,
568.67uS,5.20,5.12,,
569.34uS,5.20,5.12,,
570.00uS,5.20,5.12,,
570.67uS,5.20,5.12,,
571.34uS,5.20,5.12,,
572.00uS,5.20,5.12,,
572.67uS,5.20,5.12,,
573.34uS,5.20,5.12,,
574.00uS,5.20,5.12,,
574.67uS,5.20,5.12,,
575.34uS,5.20,5.12,,
576.00uS,5.20,5.12,,
576.67uS,5.20,5.12,,
577.34uS,5.20,5.12,,
578.00uS,5.20,5.12,,
578.67uS,5.20,5.12,,
579.34uS,5.20,5.12,,
580.00uS,5.20,5.12,,
580.67uS,5.20,5.12,,
581.34uS,5.20,5.12,,
582.00uS,5.20,5.12,,
582.67uS,5.20,5.12,,
583.34uS,5.20,5.12,,
584.00uS,5.20,5.12,,
584.67uS,5.20,5.12,,
585.34uS,5.20,5.12,,
586.00uS,5.20,5.12,,
586.67uS,5.20,5.12,,
587.34uS,5.20,5.12,,
588.00uS,5.20,5.12,,
588.67uS,5.20,5.12,,
589.34uS,5.20,5.12,,
590.00uS,5.20,5.12,,
590.67uS,5.20,5.12,,
591.34uS,5.20,5.12,,
592.00uS,5.20,5.12,,
592.67uS,5.20,5.12,,
593.34uS,5.20,5.12,,
594.00uS,5.20,5.12,,
594.67uS,5.20,5.12,,
595.34uS,5.20,5.12,,
596.00uS,5.20,5.12,,
596.67uS,5.20,5.12,,
597.34uS,5.20,5.12,,
598.00uS,5.20,5.12,,
598.67uS,5.20,5.12,,
599.34uS,5.20,5.12,,
600.00uS,5.20,5.12,,
600.67uS,5.20,5.12,,
601.34uS,5.20,5.12,,
602.00uS,5.20,5.12,,
602.67uS,5.20,5.12,,
603.34uS,5.20,5.12,,
604.00uS,5.20,5.12,,
604.67uS,5.20,5.12,,
605.34uS,5.20,5.12,,
606.00uS,5.20,5.12,,
606.67uS,5.20,5.12,,
607.34uS,5.20,5.12,,
608.00uS,5.20,5.12,,
608.67uS,5.20,5.12,,
609.34uS,5.20,5.12,,
610.00uS,5.20,5.12,,
610.67uS,5.20,5.12,,
611.34uS,5.20,5.12,,
612.00uS,5.20,5.12,,
612.67uS,5.20,5.12,,
613.34uS,5.20,5.08,,
614.00uS,5.20,5.12,,
614.67uS,5.20,5.12,,
615.34uS,5.20,5.12,,
616.00uS,5.20,5.12,,
616.67uS,5.20,5.12,,
617.34uS,5.20,5.12,,
618.00uS,5.20,5.12,,
618.67uS,5.20,5.12,,
619.34uS,5.20,5.12,,
620.00uS,5.20,5.12,,
620.67uS,5.20,5.12,,
621.34uS,5.20,5.12,,
622.00uS,5.20,5.12,,
622.67uS,5.20,5.12,,
623.34uS,5.20,5.12,,
624.00uS,5.20,5.12,,
624.67uS,5.20,5.12,,
625.34uS,5.20,5.12,,
626.00uS,5.20,5.12,,
626.67uS,5.20,5.12,,
627.34uS,5.20,5.12,,
628.00uS,5.20,5.12,,
628.67uS,5.20,5.12,,
629.34uS,5.20,5.12,,
630.00uS,5.20,5.12,,
630.67uS,5.20,5.12,,
631.34uS,5.20,5.12,,
632.00uS,5.20,5.12,,
632.67uS,5.20,5.12,,
633.34uS,5.20,5.12,,
634.00uS,5.20,5.12,,
634.67uS,5.20,5.12,,
635.34uS,5.20,5.12,,
636.00uS,5.20,5.16,,
636.67uS,5.20,5.12,,
637.34uS,5.20,5.12,,
638.00uS,5.20,5.12,,
638.67uS,5.20,5.12,,
639.34uS,5.20,5.12,,
640.00uS,5.20,5.12,,
640.67uS,5.20,5.12,,
641.34uS,5.20,5.12,,
642.00uS,5.20,5.12,,
642.67uS,5.20,5.12,,
643.34uS,5.20,5.12,,
644.00uS,5.20,5.12,,
644.67uS,5.20,5.12,,
645.34uS,5.20,5.12,,
646.00uS,5.20,5.12,,
646.67uS,5.20,5.12,,
647.34uS,5.20,5.08,,
648.00uS,5.20,5.12,,
648.67uS,5.20,5.12,,
649.34uS,5.20,5.12,,
650.00uS,5.20,5.12,,
650.67uS,5.20,5.12,,
651.34uS,5.20,5.12,,
652.00uS,5.20,5.12,,
652.67uS,5.20,5.12,,
653.34uS,5.20,5.12,,
654.00uS,5.20,5.12,,
654.67uS,5.20,5.12,,
655.34uS,5.20,5.12,,
656.00uS,5.20,5.12,,
656.67uS,5.20,5.12,,
657.34uS,5.20,5.16,,
658.00uS,5.20,5.12,,
658.67uS,5.20,5.12,,
659.34uS,5.20,5.12,,
660.00uS,5.20,5.12,,
660.67uS,5.20,5.12,,
661.34uS,5.20,5.12,,
662.00uS,5.20,5.12,,
662.67uS,5.20,5.12,,
663.34uS,5.20,5.12,,
664.00uS,5.20,5.12,,
664.67uS,5.20,5.12,,
665.34uS,5.20,5.12,,
666.00uS,5.20,5.12,,
666.67uS,5.20,5.12,,
667.34uS,5.20,5.12,,
668.00uS,5.20,5.12,,
668.67uS,5.20,5.12,,
669.34uS,5.20,5.12,,
670.00uS,5.20,5.12,,
670.67uS,5.20,5.12,,
671.34uS,5.20,5.12,,
672.00uS,5.20,5.12,,
672.67uS,5.20,5.12,,
673.34uS,5.20,5.12,,
674.00uS,5.20,5.12,,
674.67uS,5.20,5.12,,
675.34uS,5.20,5.12,,
676.00uS,5.20,5.12,,
676.67uS,5.20,5.12,,
677.34uS,5.20,5.12,,
678.00uS,5.20,5.12,,
678.67uS,5.20,5.12,,
679.34uS,5.20,5.12,,
680.00uS,5.20,5.12,,
680.67uS,5.20,5.12,,
681.34uS,5.20,5.12,,
682.00uS,5.20,5.12,,
682.67uS,5.20,5.12,,
683.34uS,5.20,5.12,,
684.00uS,5.20,5.12,,
684.67uS,5.20,5.12,,
685.34uS,5.20,5.12,,
686.00uS,5.20,5.12,,
686.67uS,5.20,5.12,,
687.34uS,5.20,5.12,,
688.00uS,5.20,5.12,,
688.67uS,5.20,5.12,,
689.34uS,5.20,5.12,,
690.00uS,5.24,5.12,,
690.67uS,5.20,5.12,,
691.34uS,5.20,5.12,,
692.00uS,5.20,5.12,,
692.67uS,5.20,5.12,,
693.34uS,5.20,5.12,,
694.00uS,5.20,5.12,,
694.67uS,5.20,5.12,,
695.34uS,5.20,5.12,,
696.00uS,5.20,5.12,,
696.67uS,5.20,5.12,,
697.34uS,5.20,5.12,,
698.00uS,5.20,5.12,,
698.67uS,5.20,5.12,,
699.34uS,5.20,5.12,,
700.00uS,5.20,5.12,,
700.67uS,5.20,5.12,,
701.34uS,5.20,5.12,,
702.00uS,5.20,5.12,,
702.67uS,5.20,5.12,,
703.34uS,5.20,5.12,,
704.00uS,5.20,5.12,,
704.67uS,5.20,5.12,,
705.34uS,5.20,5.12,,
706.00uS,5.20,5.12,,
706.67uS,5.20,5.12,,
707.34uS,5.20,5.12,,
708.00uS,5.20,5.12,,
708.67uS,5.20,5.12,,
709.34uS,5.20,5.12,,
710.00uS,5.20,5.16,,
710.67uS,5.20,5.12,,
711.34uS,5.20,5.12,,
712.00uS,5.20,5.12,,
712.67uS,5.20,5.12,,
713.34uS,5.20,5.12,,
714.00uS,5.20,5.12,,
714.67uS,5.20,5.12,,
715.34uS,5.20,5.12,,
716.00uS,5.20,5.12,,
716.67uS,5.20,5.12,,
717.34uS,5.20,5.12,,
718.00uS,5.20,5.12,,
718.67uS,5.20,5.08,,
719.34uS,5.20,5.12,,
720.00uS,5.20,5.12,,
720.67uS,5.20,5.12,,
721.34uS,5.20,5.12,,
722.00uS,5.20,5.12,,
722.67uS,5.20,5.12,,
723.34uS,5.20,5.12,,
724.00uS,5.20,5.12,,
724.67uS,5.20,5.12,,
725.34uS,5.20,5.12,,
726.00uS,5.20,5.12,,
726.67uS,5.20,5.12,,
727.34uS,5.20,5.12,,
728.00uS,5.20,5.12,,
728.67uS,5.20,5.12,,
729.34uS,5.20,5.12,,
730.00uS,5.20,5.12,,
730.67uS,5.20,5.12,,
731.34uS,5.20,5.12,,
732.00uS,5.20,5.12,,
732.67uS,5.20,5.12,,
733.34uS,5.20,5.12,,
734.00uS,5.20,5.12,,
734.67uS,5.20,5.12,,
735.34uS,5.20,5.12,,
736.00uS,5.20,5.12,,
736.67uS,5.20,5.12,,
737.34uS,5.20,5.12,,
738.00uS,5.20,5.12,,
738.67uS,5.20,5.12,,
739.34uS,5.20,5.12,,
740.00uS,5.20,5.12,,
740.67uS,5.20,5.12,,
741.34uS,5.20,5.12,,
742.00uS,5.20,5.12,,
742.67uS,5.20,5.12,,
743.34uS,5.20,5.12,,
744.00uS,5.20,5.12,,
744.67uS,5.20,5.12,,
745.34uS,5.20,5.12,,
746.00uS,5.20,5.12,,
746.67uS,5.20,5.12,,
747.34uS,5.20,5.12,,
748.00uS,5.20,5.12,,
748.67uS,5.20,5.12,,
749.34uS,5.16,5.12,,
750.00uS,5.20,5.12,,
750.67uS,5.20,5.12,,
751.34uS,5.20,5.12,,
752.00uS,5.16,5.12,,
752.67uS,5.20,5.12,,
753.34uS,5.20,5.12,,
754.00uS,5.20,5.12,,
754.67uS,5.20,5.12,,
755.34uS,5.20,5.12,,
756.00uS,5.16,5.12,,
756.67uS,5.20,5.12,,
757.34uS,5.20,5.12,,
758.00uS,5.20,5.12,,
758.67uS,5.20,5.16,,
759.34uS,5.20,5.12,,
760.00uS,5.20,5.12,,
760.67uS,5.20,5.12,,
761.34uS,5.20,5.12,,
762.00uS,5.20,5.12,,
762.67uS,5.20,5.12,,
763.34uS,5.20,5.12,,
764.00uS,5.20,5.12,,
764.67uS,5.20,5.12,,
765.34uS,5.20,5.12,,
766.00uS,5.20,5.12,,
766.67uS,5.20,5.12,,
767.34uS,5.20,5.12,,
768.00uS,5.20,5.12,,
768.67uS,5.20,5.16,,
769.34uS,5.20,5.12,,
770.00uS,5.20,5.12,,
770.67uS,5.20,5.12,,
771.34uS,5.20,5.12,,
772.00uS,5.20,5.12,,
772.67uS,5.20,5.12,,
773.34uS,5.20,5.12,,
774.00uS,5.20,5.12,,
774.67uS,5.20,5.12,,
775.34uS,5.20,5.12,,
776.00uS,5.20,5.12,,
776.67uS,5.20,5.12,,
777.34uS,5.20,5.12,,
778.00uS,5.20,5.12,,
778.67uS,5.20,5.12,,
779.34uS,5.20,5.12,,
780.00uS,5.20,5.12,,
780.67uS,5.20,5.12,,
781.34uS,5.20,5.12,,
782.00uS,5.20,5.12,,
782.67uS,5.20,5.12,,
783.34uS,5.20,5.12,,
784.00uS,5.20,5.12,,
784.67uS,5.20,5.12,,
785.34uS,5.20,5.12,,
786.00uS,5.20,5.12,,
786.67uS,5.20,5.12,,
787.34uS,5.20,5.12,,
788.00uS,5.20,5.12,,
788.67uS,5.20,5.12,,
789.34uS,5.20,5.12,,
790.00uS,5.20,5.12,,
790.67uS,5.20,5.12,,
791.34uS,5.20,5.12,,
792.00uS,5.20,5.12,,
792.67uS,5.20,5.12,,
793.34uS,5.20,5.12,,
794.00uS,5.20,5.12,,
794.67uS,5.20,5.12,,
795.34uS,5.20,5.12,,
796.00uS,5.20,5.12,,
796.67uS,5.16,5.12,,
797.34uS,5.20,5.12,,
798.00uS,5.20,5.12,,
798.67uS,5.20,5.12,,
799.34uS,5.20,5.12,,
800.00uS,5.20,5.12,,
800.67uS,5.20,5.12,,
801.34uS,5.20,5.12,,
802.00uS,5.20,5.12,,
802.67uS,5.20,5.12,,
803.34uS,5.20,5.12,,
804.00uS,5.20,5.12,,
804.67uS,5.20,5.12,,
805.34uS,5.20,5.12,,
806.00uS,5.20,5.12,,
806.67uS,5.20,5.12,,
807.34uS,5.20,5.12,,
808.00uS,5.20,5.12,,
808.67uS,5.20,5.12,,
809.34uS,5.20,5.12,,
810.00uS,5.20,5.12,,
810.67uS,5.20,5.12,,
811.34uS,5.20,5.12,,
812.00uS,5.20,5.12,,
812.67uS,5.20,5.12,,
813.34uS,5.20,5.12,,
814.00uS,5.20,5.12,,
814.67uS,5.20,5.12,,
815.34uS,5.20,5.12,,
816.00uS,5.20,5.12,,
816.67uS,5.20,5.12,,
817.34uS,5.20,5.12,,
818.00uS,5.20,5.16,,
818.67uS,5.20,5.12,,
819.34uS,5.20,5.12,,
820.00uS,5.20,5.12,,
820.67uS,5.20,5.12,,
821.34uS,5.20,5.12,,
822.00uS,5.20,5.12,,
822.67uS,5.20,5.12,,
823.34uS,5.20,5.12,,
824.00uS,5.16,5.12,,
824.67uS,5.20,5.12,,
825.34uS,5.20,5.12,,
826.00uS,5.20,5.12,,
826.67uS,5.20,5.12,,
827.34uS,5.20,5.12,,
828.00uS,5.20,5.12,,
828.67uS,5.20,5.12,,
829.34uS,5.20,5.12,,
830.00uS,5.20,5.12,,
830.67uS,5.20,5.12,,
831.34uS,5.20,5.12,,
832.00uS,5.20,5.12,,
832.67uS,5.20,5.12,,
833.34uS,5.20,5.12,,
834.00uS,5.20,5.12,,
834.67uS,5.20,5.12,,
835.34uS,5.20,5.12,,
836.00uS,5.20,5.12,,
836.67uS,5.20,5.12,,
837.34uS,5.20,5.12,,
838.00uS,5.20,5.12,,
838.67uS,5.20,5.12,,
839.34uS,5.16,5.12,,
840.00uS,5.20,5.12,,
840.67uS,5.20,5.12,,
841.34uS,5.20,5.12,,
842.00uS,5.20,5.12,,
842.67uS,5.20,5.12,,
843.34uS,5.20,5.12,,
844.00uS,5.20,5.12,,
844.67uS,5.20,5.12,,
845.34uS,5.20,5.12,,
846.00uS,5.20,5.12,,
846.67uS,5.20,5.16,,
847.34uS,5.20,5.12,,
848.00uS,5.20,5.12,,
848.67uS,5.20,5.12,,
849.34uS,5.20,5.12,,
850.00uS,5.20,5.12,,
850.67uS,5.20,5.12,,
851.34uS,5.20,5.12,,
852.00uS,5.20,5.12,,
852.67uS,5.20,5.12,,
853.34uS,5.20,5.12,,
854.00uS,5.20,5.12,,
854.67uS,5.20,5.12,,
855.34uS,5.20,5.12,,
856.00uS,5.20,5.12,,
856.67uS,5.20,5.12,,
857.34uS,5.20,5.12,,
858.00uS,5.20,5.12,,
858.67uS,5.20,5.12,,
859.34uS,5.20,5.12,,
860.00uS,5.20,5.12,,
860.67uS,5.20,5.12,,
861.34uS,5.20,5.12,,
862.00uS,5.20,5.12,,
862.67uS,5.20,5.12,,
863.34uS,5.20,5.12,,
864.00uS,5.20,5.12,,
864.67uS,5.20,5.12,,
865.34uS,5.20,5.12,,
866.00uS,5.20,5.12,,
866.67uS,5.20,5.12,,
867.34uS,5.20,5.12,,
868.00uS,5.20,5.12,,
868.67uS,5.20,5.12,,
869.34uS,5.20,5.12,,
870.00uS,5.20,5.12,,
870.67uS,5.20,5.12,,
871.34uS,5.20,5.12,,
872.00uS,5.20,5.12,,
872.67uS,5.20,5.12,,
873.34uS,5.20,5.12,,
874.00uS,5.20,5.12,,
874.67uS,5.20,5.12,,
875.34uS,5.20,5.12,,
876.00uS,5.20,5.12,,
876.67uS,5.20,5.12,,
877.34uS,5.20,5.12,,
878.00uS,5.20,5.12,,
878.67uS,5.20,5.12,,
879.34uS,5.20,5.12,,
880.00uS,5.20,5.12,,
880.67uS,5.20,5.12,,
881.34uS,5.20,5.12,,
882.00uS,5.20,5.12,,
882.67uS,5.20,5.12,,
883.34uS,5.20,5.12,,
884.00uS,5.20,5.12,,
884.67uS,5.20,5.12,,
885.34uS,5.20,5.12,,
886.00uS,5.20,5.12,,
886.67uS,5.20,5.12,,
887.34uS,5.20,5.12,,
888.00uS,5.20,5.12,,
888.67uS,5.20,5.12,,
889.34uS,5.20,5.12,,
890.00uS,5.20,5.12,,
890.67uS,5.20,5.12,,
891.34uS,5.20,5.16,,
892.00uS,5.20,5.12,,
892.67uS,5.20,5.12,,
893.34uS,5.20,5.12,,
894.00uS,5.20,5.12,,
894.67uS,5.20,5.12,,
895.34uS,5.20,5.12,,
896.00uS,5.20,5.12,,
896.67uS,5.20,5.12,,
897.34uS,5.20,5.12,,
898.00uS,5.20,5.12,,
898.67uS,5.20,5.12,,
899.34uS,5.20,5.12,,
900.00uS,5.20,5.12,,
900.67uS,5.20,5.12,,
901.34uS,5.20,5.12,,
902.00uS,5.20,5.12,,
902.67uS,5.20,5.12,,
903.34uS,5.20,5.12,,
904.00uS,5.20,5.12,,
904.67uS,5.20,5.12,,
905.34uS,5.20,5.12,,
906.00uS,5.20,5.12,,
906.67uS,5.20,5.12,,
907.34uS,5.20,5.12,,
908.00uS,5.20,5.12,,
908.67uS,5.20,5.12,,
909.34uS,5.20,5.12,,
910.00uS,5.20,5.12,,
910.67uS,5.20,5.12,,
911.34uS,5.20,5.12,,
912.00uS,5.20,5.12,,
912.67uS,5.20,5.12,,
913.34uS,5.20,5.12,,
914.00uS,5.20,5.12,,
914.67uS,5.20,5.12,,
915.34uS,5.20,5.12,,
916.00uS,5.20,5.12,,
916.67uS,5.20,5.12,,
917.34uS,5.20,5.12,,
918.00uS,5.20,5.12,,
918.67uS,5.20,5.12,,
919.34uS,5.20,5.12,,
920.00uS,5.20,5.12,,
920.67uS,5.20,5.12,,
921.34uS,5.20,5.12,,
922.00uS,5.20,5.12,,
922.67uS,5.20,5.12,,
923.34uS,5.20,5.12,,
924.00uS,5.20,5.12,,
924.67uS,5.20,5.12,,
925.34uS,5.20,5.12,,
926.00uS,5.20,5.12,,
926.67uS,5.20,5.12,,
927.34uS,5.20,5.12,,
928.00uS,5.20,5.12,,
928.67uS,5.20,5.12,,
929.34uS,5.20,5.12,,
930.00uS,5.20,5.12,,
930.67uS,5.20,5.12,,
931.34uS,5.20,5.12,,
932.00uS,5.16,5.12,,
932.67uS,5.20,5.12,,
933.34uS,5.20,5.12,,
934.00uS,5.20,5.12,,
934.67uS,5.20,5.12,,
935.34uS,5.16,5.12,,
936.00uS,5.20,5.12,,
936.67uS,5.20,5.12,,
937.34uS,5.20,5.12,,
938.00uS,5.20,5.12,,
938.67uS,5.20,5.12,,
939.34uS,5.20,5.12,,
940.00uS,5.20,5.12,,
940.67uS,5.20,5.12,,
941.34uS,5.20,5.12,,
942.00uS,5.20,5.12,,
942.67uS,5.20,5.12,,
943.34uS,5.20,5.12,,
944.00uS,5.20,5.12,,
944.67uS,5.20,5.12,,
945.34uS,5.20,5.12,,
946.00uS,5.20,5.12,,
946.67uS,5.20,5.12,,
947.34uS,5.20,5.12,,
948.00uS,5.20,5.12,,
948.67uS,5.20,5.12,,
949.34uS,5.20,5.12,,
950.00uS,5.20,5.12,,
950.67uS,5.20,5.12,,
951.34uS,5.20,5.12,,
952.00uS,5.16,5.12,,
952.67uS,5.20,5.12,,
953.34uS,5.20,5.12,,
954.00uS,5.20,5.12,,
954.67uS,5.20,5.12,,
955.34uS,5.20,5.12,,
956.00uS,5.16,5.12,,
956.67uS,5.20,5.12,,
957.34uS,5.20,5.12,,
958.00uS,5.20,5.12,,
958.67uS,5.20,5.12,,
959.34uS,5.20,5.12,,
960.00uS,5.20,5.12,,
960.67uS,5.20,5.12,,
961.34uS,5.20,5.12,,
962.00uS,5.20,5.12,,
962.67uS,5.20,5.12,,
963.34uS,5.20,5.12,,
964.00uS,5.16,5.12,,
964.67uS,5.20,5.12,,
965.34uS,5.20,5.12,,
966.00uS,5.20,5.12,,
966.67uS,5.20,5.12,,
967.34uS,5.20,5.12,,
968.00uS,5.20,5.12,,
968.67uS,5.20,5.12,,
969.34uS,5.20,5.12,,
970.00uS,5.20,5.12,,
970.67uS,5.20,5.12,,
971.34uS,5.24,5.12,,
972.00uS,5.20,5.12,,
972.67uS,5.20,5.12,,
973.34uS,5.20,5.12,,
974.00uS,5.20,5.12,,
974.67uS,5.20,5.12,,
975.34uS,5.20,5.12,,
976.00uS,5.20,5.12,,
976.67uS,5.20,5.12,,
977.34uS,5.20,5.12,,
978.00uS,5.20,5.12,,
978.67uS,5.20,5.12,,
979.34uS,5.20,5.12,,
980.00uS,5.16,5.12,,
980.67uS,5.20,5.12,,
981.34uS,5.20,5.12,,
982.00uS,5.20,5.12,,
982.67uS,5.20,5.12,,
983.34uS,5.16,5.08,,
984.00uS,5.20,5.12,,
984.67uS,5.20,5.12,,
985.34uS,5.20,5.12,,
986.00uS,5.20,5.12,,
986.67uS,5.20,5.12,,
987.34uS,5.20,5.12,,
988.00uS,5.20,5.12,,
988.67uS,5.20,5.12,,
989.34uS,5.20,5.12,,
990.00uS,5.20,5.12,,
990.67uS,5.20,5.12,,
991.34uS,5.20,5.12,,
992.00uS,5.20,5.12,,
992.67uS,5.20,5.12,,
993.34uS,5.20,5.12,,
994.00uS,5.20,5.12,,
994.67uS,5.20,5.12,,
995.34uS,5.20,5.12,,
996.00uS,5.20,5.12,,
996.67uS,5.20,5.12,,
997.34uS,5.20,5.12,,
998.00uS,5.20,5.12,,
998.67uS,5.20,5.12,,
999.34uS,5.20,5.12,,
1.0000mS,5.20,5.12,,
1.0007mS,5.20,5.12,,
1.0013mS,5.20,5.12,,
1.0020mS,5.20,5.12,,
1.0027mS,5.20,5.12,,
1.0033mS,5.20,5.12,,
1.0040mS,5.20,5.12,,
1.0047mS,5.20,5.12,,
1.0053mS,5.20,5.12,,
1.0060mS,5.20,5.12,,
1.0067mS,5.20,5.12,,
1.0073mS,5.20,5.12,,
1.0080mS,5.20,5.12,,
1.0087mS,5.20,5.12,,
1.0093mS,5.20,5.12,,
1.0100mS,5.20,5.12,,
1.0107mS,5.20,5.12,,
1.0113mS,5.20,5.12,,
1.0120mS,5.20,5.12,,
1.0127mS,5.20,5.12,,
1.0133mS,5.20,5.12,,
1.0140mS,5.20,5.12,,
1.0147mS,5.20,5.12,,
1.0153mS,5.20,5.12,,
1.0160mS,5.20,5.12,,
1.0167mS,5.20,5.12,,
1.0173mS,5.20,5.12,,
1.0180mS,5.20,5.12,,
1.0187mS,5.20,5.12,,
1.0193mS,5.20,5.12,,
1.0200mS,5.20,5.12,,
1.0207mS,5.20,5.12,,
1.0213mS,5.20,5.12,,
1.0220mS,5.20,5.12,,
1.0227mS,5.20,5.16,,
1.0233mS,5.20,5.12,,
1.0240mS,5.20,5.12,,
1.0247mS,5.20,5.12,,
1.0253mS,5.20,5.12,,
1.0260mS,5.20,5.12,,
1.0267mS,5.20,5.12,,
1.0273mS,5.20,5.12,,
1.0280mS,5.20,5.12,,
1.0287mS,5.20,5.12,,
1.0293mS,5.20,5.12,,
1.0300mS,5.20,5.12,,
1.0307mS,5.20,5.12,,
1.0313mS,5.20,5.12,,
1.0320mS,5.20,5.12,,
1.0327mS,5.20,5.12,,
1.0333mS,5.20,5.12,,
1.0340mS,5.20,5.12,,
1.0347mS,5.20,5.12,,
1.0353mS,5.20,5.12,,
1.0360mS,5.20,5.12,,
1.0367mS,5.20,5.12,,
1.0373mS,5.20,5.12,,
1.0380mS,5.20,5.12,,
1.0387mS,5.20,5.12,,
1.0393mS,5.20,5.12,,
1.0400mS,5.20,5.12,,
1.0407mS,5.20,5.12,,
1.0413mS,5.20,5.12,,
1.0420mS,5.20,5.12,,
1.0427mS,5.20,5.12,,
1.0433mS,5.20,5.12,,
1.0440mS,5.20,5.12,,
1.0447mS,5.20,5.12,,
1.0453mS,5.20,5.12,,
1.0460mS,5.20,5.12,,
1.0467mS,5.20,5.12,,
1.0473mS,5.20,5.12,,
1.0480mS,5.20,5.12,,
1.0487mS,5.20,5.12,,
1.0493mS,5.20,5.12,,
1.0500mS,5.20,5.12,,
1.0507mS,5.20,5.12,,
1.0513mS,5.20,5.12,,
1.0520mS,5.20,5.12,,
1.0527mS,5.16,5.12,,
1.0533mS,5.20,5.12,,
1.0540mS,5.20,5.12,,
1.0547mS,5.20,5.12,,
1.0553mS,5.20,5.12,,
1.0560mS,5.20,5.12,,
1.0567mS,5.20,5.12,,
1.0573mS,5.20,5.12,,
1.0580mS,5.20,5.12,,
1.0587mS,5.20,5.12,,
1.0593mS,5.20,5.12,,
1.0600mS,5.20,5.12,,
1.0607mS,5.20,5.12,,
1.0613mS,5.20,5.12,,
1.0620mS,5.20,5.12,,
1.0627mS,5.20,5.12,,
1.0633mS,5.20,5.12,,
1.0640mS,5.20,5.12,,
1.0647mS,5.20,5.12,,
1.0653mS,5.20,5.12,,
1.0660mS,5.20,5.12,,
1.0667mS,5.20,5.12,,
1.0673mS,5.20,5.12,,
1.0680mS,5.20,5.12,,
1.0687mS,5.20,5.12,,
1.0693mS,5.20,5.12,,
1.0700mS,5.20,5.12,,
1.0707mS,5.20,5.12,,
1.0713mS,5.20,5.12,,
1.0720mS,5.20,5.12,,
1.0727mS,5.20,5.12,,
1.0733mS,5.20,5.12,,
1.0740mS,5.20,5.12,,
1.0747mS,5.20,5.12,,
1.0753mS,5.20,5.12,,
1.0760mS,5.20,5.12,,
1.0767mS,5.20,5.12,,
1.0773mS,5.20,5.12,,
1.0780mS,5.20,5.12,,
1.0787mS,5.20,5.12,,
1.0793mS,5.20,5.12,,
1.0800mS,5.20,5.12,,
1.0807mS,5.20,5.12,,
1.0813mS,5.16,5.12,,
1.0820mS,5.20,5.12,,
1.0827mS,5.20,5.12,,
1.0833mS,5.20,5.12,,
1.0840mS,5.20,5.12,,
1.0847mS,5.16,5.12,,
1.0853mS,5.20,5.12,,
1.0860mS,5.20,5.12,,
1.0867mS,5.20,5.12,,
1.0873mS,5.20,5.12,,
1.0880mS,5.20,5.12,,
1.0887mS,5.20,5.12,,
1.0893mS,5.20,5.12,,
1.0900mS,5.20,5.12,,
1.0907mS,5.20,5.12,,
1.0913mS,5.20,5.12,,
1.0920mS,5.20,5.12,,
1.0927mS,5.20,5.12,,
1.0933mS,5.20,5.12,,
1.0940mS,5.20,5.12,,
1.0947mS,5.20,5.12,,
1.0953mS,5.20,5.12,,
1.0960mS,5.20,5.12,,
1.0967mS,5.20,5.08,,
1.0973mS,5.20,5.12,,
1.0980mS,5.20,5.12,,
1.0987mS,5.20,5.12,,
1.0993mS,5.20,5.12,,
1.1000mS,5.20,5.12,,
1.1007mS,5.20,5.12,,
1.1013mS,5.20,5.16,,
1.1020mS,5.20,5.12,,
1.1027mS,5.20,5.12,,
1.1033mS,5.20,5.12,,
1.1040mS,5.20,5.12,,
1.1047mS,5.20,5.12,,
1.1053mS,5.20,5.12,,
1.1060mS,5.20,5.12,,
1.1067mS,5.20,5.12,,
1.1073mS,5.20,5.12,,
1.1080mS,5.20,5.12,,
1.1087mS,5.20,5.12,,
1.1093mS,5.20,5.12,,
1.1100mS,5.20,5.12,,
1.1107mS,5.20,5.12,,
1.1113mS,5.20,5.12,,
1.1120mS,5.20,5.12,,
1.1127mS,5.20,5.12,,
1.1133mS,5.20,5.12,,
1.1140mS,5.20,5.12,,
1.1147mS,5.20,5.12,,
1.1153mS,5.20,5.12,,
1.1160mS,5.20,5.12,,
1.1167mS,5.20,5.12,,
1.1173mS,5.20,5.12,,
1.1180mS,5.20,5.12,,
1.1187mS,5.20,5.12,,
1.1193mS,5.20,5.12,,
1.1200mS,5.20,5.12,,
1.1207mS,5.20,5.12,,
1.1213mS,5.20,5.12,,
1.1220mS,5.20,5.12,,
1.1227mS,5.20,5.12,,
1.1233mS,5.20,5.12,,
1.1240mS,5.20,5.12,,
1.1247mS,5.20,5.12,,
1.1253mS,5.20,5.12,,
1.1260mS,5.20,5.12,,
1.1267mS,5.20,5.12,,
1.1273mS,5.20,5.12,,
1.1280mS,5.20,5.12,,
1.1287mS,5.20,5.12,,
1.1293mS,5.20,5.12,,
1.1300mS,5.20,5.16,,
1.1307mS,5.20,5.12,,
1.1313mS,5.20,5.12,,
1.1320mS,5.20,5.12,,
1.1327mS,5.20,5.12,,
1.1333mS,5.20,5.12,,
1.1340mS,5.20,5.12,,
1.1347mS,5.20,5.12,,
1.1353mS,5.20,5.12,,
1.1360mS,5.20,5.12,,
1.1367mS,5.20,5.12,,
1.1373mS,5.20,5.12,,
1.1380mS,5.20,5.12,,
1.1387mS,5.20,5.12,,
1.1393mS,5.20,5.12,,
1.1400mS,5.20,5.12,,
1.1407mS,5.20,5.12,,
1.1413mS,5.20,5.12,,
1.1420mS,5.20,5.12,,
1.1427mS,5.20,5.12,,
1.1433mS,5.20,5.12,,
1.1440mS,5.20,5.12,,
1.1447mS,5.20,5.12,,
1.1453mS,5.20,5.12,,
1.1460mS,5.20,5.12,,
1.1467mS,5.20,5.12,,
1.1473mS,5.20,5.12,,
1.1480mS,5.20,5.12,,
1.1487mS,5.20,5.12,,
1.1493mS,5.20,5.12,,
1.1500mS,5.20,5.12,,
1.1507mS,5.20,5.12,,
1.1513mS,5.20,5.12,,
1.1520mS,5.20,5.12,,
1.1527mS,5.20,5.12,,
1.1533mS,5.20,5.12,,
1.1540mS,5.20,5.12,,
1.1547mS,5.20,5.12,,
1.1553mS,5.20,5.12,,
1.1560mS,5.20,5.12,,
1.1567mS,5.20,5.12,,
1.1573mS,5.20,5.12,,
1.1580mS,5.20,5.12,,
1.1587mS,5.20,5.12,,
1.1593mS,5.20,5.12,,
1.1600mS,5.20,5.12,,
1.1607mS,5.20,5.12,,
1.1613mS,5.20,5.12,,
1.1620mS,5.20,5.12,,
1.1627mS,5.20,5.12,,
1.1633mS,5.20,5.12,,
1.1640mS,5.20,5.12,,
1.1647mS,5.20,5.12,,
1.1653mS,5.20,5.12,,
1.1660mS,5.20,5.12,,
1.1667mS,5.20,5.12,,
1.1673mS,5.20,5.12,,
1.1680mS,5.20,5.12,,
1.1687mS,5.20,5.12,,
1.1693mS,5.20,5.12,,
1.1700mS,5.20,5.12,,
1.1707mS,5.16,5.12,,
1.1713mS,5.20,5.12,,
1.1720mS,5.16,5.12,,
1.1727mS,5.20,5.12,,
1.1733mS,5.20,5.12,,
1.1740mS,5.20,5.12,,
1.1747mS,5.20,5.12,,
1.1753mS,5.20,5.12,,
1.1760mS,5.20,5.12,,
1.1767mS,5.20,5.12,,
1.1773mS,5.20,5.12,,
1.1780mS,5.20,5.12,,
1.1787mS,5.20,5.12,,
1.1793mS,5.20,5.12,,
1.1800mS,5.20,5.12,,
1.1807mS,5.20,5.12,,
1.1813mS,5.20,5.12,,
1.1820mS,5.20,5.12,,
1.1827mS,5.20,5.12,,
1.1833mS,5.20,5.12,,
1.1840mS,5.20,5.12,,
1.1847mS,5.20,5.12,,
1.1853mS,5.20,5.12,,
1.1860mS,5.20,5.12,,
1.1867mS,5.20,5.12,,
1.1873mS,5.20,5.12,,
1.1880mS,5.20,5.12,,
1.1887mS,5.20,5.12,,
1.1893mS,5.20,5.12,,
1.1900mS,5.20,5.12,,
1.1907mS,5.20,5.12,,
1.1913mS,5.20,5.12,,
1.1920mS,5.20,5.12,,
1.1927mS,5.20,5.12,,
1.1933mS,5.20,5.12,,
1.1940mS,5.20,5.12,,
1.1947mS,5.20,5.12,,
1.1953mS,5.20,5.12,,
1.1960mS,5.20,5.12,,
1.1967mS,5.20,5.12,,
1.1973mS,5.20,5.12,,
1.1980mS,5.20,5.12,,
1.1987mS,5.20,5.12,,
1.1993mS,5.20,5.12,,
1.2000mS,5.20,5.12,,
1.2007mS,5.20,5.12,,
1.2013mS,5.20,5.12,,
1.2020mS,5.20,5.12,,
1.2027mS,5.20,5.12,,
1.2033mS,5.20,5.12,,
1.2040mS,5.20,5.12,,
1.2047mS,5.20,5.12,,
1.2053mS,5.20,5.12,,
1.2060mS,5.20,5.12,,
1.2067mS,5.16,5.12,,
1.2073mS,5.20,5.12,,
1.2080mS,5.20,5.12,,
1.2087mS,5.16,5.12,,
1.2093mS,5.20,5.12,,
1.2100mS,5.20,5.12,,
1.2107mS,5.20,5.12,,
1.2113mS,5.20,5.12,,
1.2120mS,5.20,5.12,,
1.2127mS,5.20,5.12,,
1.2133mS,5.20,5.12,,
1.2140mS,5.20,5.12,,
1.2147mS,5.20,5.12,,
1.2153mS,5.20,5.12,,
1.2160mS,5.16,5.12,,
1.2167mS,5.20,5.12,,
1.2173mS,5.20,5.12,,
1.2180mS,5.20,5.12,,
1.2187mS,5.20,5.12,,
1.2193mS,5.16,5.12,,
1.2200mS,5.20,5.12,,
1.2207mS,5.20,5.12,,
1.2213mS,5.20,5.12,,
1.2220mS,5.20,5.12,,
1.2227mS,5.20,5.12,,
1.2233mS,5.20,5.12,,
1.2240mS,5.20,5.12,,
1.2247mS,5.20,5.12,,
1.2253mS,5.20,5.12,,
1.2260mS,5.20,5.12,,
1.2267mS,5.16,5.12,,
1.2273mS,5.20,5.12,,
1.2280mS,5.20,5.12,,
1.2287mS,5.24,5.12,,
1.2293mS,5.20,5.12,,
1.2300mS,5.16,5.12,,
1.2307mS,5.20,5.12,,
1.2313mS,5.20,5.12,,
1.2320mS,5.20,5.12,,
1.2327mS,5.20,5.12,,
1.2333mS,5.20,5.12,,
1.2340mS,5.20,5.12,,
1.2347mS,5.20,5.12,,
1.2353mS,5.20,5.12,,
1.2360mS,5.20,5.12,,
1.2367mS,5.20,5.12,,
1.2373mS,5.20,5.12,,
1.2380mS,5.20,5.12,,
1.2387mS,5.20,5.12,,
1.2393mS,5.20,5.12,,
1.2400mS,5.16,5.12,,
1.2407mS,5.20,5.12,,
1.2413mS,5.20,5.12,,
1.2420mS,5.20,5.08,,
1.2427mS,5.20,5.12,,
1.2433mS,5.16,5.12,,
1.2440mS,5.20,5.12,,
1.2447mS,5.20,5.12,,
1.2453mS,5.20,5.12,,
1.2460mS,5.20,5.12,,
1.2467mS,5.20,5.12,,
1.2473mS,5.20,5.12,,
1.2480mS,5.20,5.12,,
1.2487mS,5.20,5.12,,
1.2493mS,5.20,5.12,,
1.2500mS,5.20,5.12,,
1.2507mS,5.20,5.12,,
1.2513mS,5.20,5.12,,
1.2520mS,5.20,5.12,,
1.2527mS,5.20,5.12,,
1.2533mS,5.20,5.12,,
1.2540mS,5.20,5.12,,
1.2547mS,5.20,5.12,,
1.2553mS,5.20,5.12,,
1.2560mS,5.20,5.12,,
1.2567mS,5.20,5.12,,
1.2573mS,5.20,5.12,,
1.2580mS,5.20,5.12,,
1.2587mS,5.20,5.12,,
1.2593mS,5.20,5.12,,
1.2600mS,5.20,5.12,,
1.2607mS,5.20,5.12,,
1.2613mS,5.20,5.12,,
1.2620mS,5.20,5.12,,
1.2627mS,5.16,5.12,,
1.2633mS,5.20,5.12,,
1.2640mS,5.20,5.12,,
1.2647mS,5.20,5.12,,
1.2653mS,5.20,5.12,,
1.2660mS,5.20,5.12,,
1.2667mS,5.20,5.12,,
1.2673mS,5.20,5.12,,
1.2680mS,5.20,5.12,,
1.2687mS,5.20,5.12,,
1.2693mS,5.20,5.12,,
1.2700mS,5.20,5.12,,
1.2707mS,5.20,5.12,,
1.2713mS,5.20,5.12,,
1.2720mS,5.20,5.12,,
1.2727mS,5.20,5.12,,
1.2733mS,5.20,5.12,,
1.2740mS,5.20,5.12,,
1.2747mS,5.16,5.12,,
1.2753mS,5.20,5.12,,
1.2760mS,5.20,5.12,,
1.2767mS,5.20,5.12,,
1.2773mS,5.20,5.12,,
1.2780mS,5.20,5.12,,
1.2787mS,5.20,5.12,,
1.2793mS,5.20,5.12,,
1.2800mS,5.20,5.12,,
1.2807mS,5.20,5.12,,
1.2813mS,5.20,5.12,,
1.2820mS,5.20,5.12,,
1.2827mS,5.20,5.12,,
1.2833mS,5.20,5.12,,
1.2840mS,5.20,5.12,,
1.2847mS,5.20,5.12,,
1.2853mS,5.20,5.12,,
1.2860mS,5.20,5.12,,
1.2867mS,5.20,5.12,,
1.2873mS,5.20,5.12,,
1.2880mS,5.20,5.12,,
1.2887mS,5.20,5.12,,
1.2893mS,5.20,5.12,,
1.2900mS,5.20,5.12,,
1.2907mS,5.20,5.12,,
1.2913mS,5.20,5.12,,
1.2920mS,5.20,5.12,,
1.2927mS,5.20,5.12,,
1.2933mS,5.20,5.12,,
1.2940mS,5.20,5.12,,
1.2947mS,5.20,5.12,,
1.2953mS,5.20,5.12,,
1.2960mS,5.20,5.12,,
1.2967mS,5.20,5.12,,
1.2973mS,5.20,5.12,,
1.2980mS,5.20,5.12,,
1.2987mS,5.20,5.12,,
1.2993mS,5.20,5.08,,
1.3000mS,5.20,5.12,,
1.3007mS,5.20,5.12,,
1.3013mS,5.20,5.12,,
1.3020mS,5.20,5.12,,
1.3027mS,5.20,5.12,,
1.3033mS,5.20,5.12,,
1.3040mS,5.20,5.12,,
1.3047mS,5.20,5.12,,
1.3053mS,5.20,5.12,,
1.3060mS,5.20,5.12,,
1.3067mS,5.20,5.12,,
1.3073mS,5.16,5.12,,
1.3080mS,5.20,5.12,,
1.3087mS,5.20,5.12,,
1.3093mS,5.20,5.12,,
1.3100mS,5.20,5.12,,
1.3107mS,5.20,5.12,,
1.3113mS,5.20,5.12,,
1.3120mS,5.20,5.12,,
1.3127mS,5.20,5.12,,
1.3133mS,5.20,5.12,,
1.3140mS,5.20,5.12,,
1.3147mS,5.20,5.12,,
1.3153mS,5.20,5.12,,
1.3160mS,5.20,5.08,,
1.3167mS,5.20,5.12,,
1.3173mS,5.20,5.12,,
1.3180mS,5.20,5.12,,
1.3187mS,5.20,5.12,,
1.3193mS,5.20,5.12,,
1.3200mS,5.20,5.12,,
1.3207mS,5.20,5.12,,
1.3213mS,5.20,5.12,,
1.3220mS,5.20,5.12,,
1.3227mS,5.20,5.12,,
1.3233mS,5.20,5.12,,
1.3240mS,5.20,5.12,,
1.3247mS,5.20,5.12,,
1.3253mS,5.20,5.12,,
1.3260mS,5.20,5.12,,
1.3267mS,5.20,5.12,,
1.3273mS,5.20,5.12,,
1.3280mS,5.20,5.12,,
1.3287mS,5.20,5.12,,
1.3293mS,5.20,5.12,,
1.3300mS,5.20,5.12,,
1.3307mS,5.20,5.12,,
1.3313mS,5.20,5.12,,
1.3320mS,5.20,5.12,,
1.3327mS,5.20,5.12,,
1.3333mS,5.20,5.12,,
1.3340mS,5.20,5.12,,
1.3347mS,5.20,5.12,,
1.3353mS,5.20,5.12,,
1.3360mS,5.20,5.12,,
1.3367mS,5.20,5.12,,
1.3373mS,5.20,5.12,,
1.3380mS,5.20,5.12,,
1.3387mS,5.20,5.12,,
1.3393mS,5.16,5.12,,
1.3400mS,5.20,5.12,,
1.3407mS,5.20,5.12,,
1.3413mS,5.20,5.12,,
1.3420mS,5.20,5.12,,
1.3427mS,5.20,5.12,,
1.3433mS,5.20,5.12,,
1.3440mS,5.20,5.12,,
1.3447mS,5.20,5.12,,
1.3453mS,5.20,5.12,,
1.3460mS,5.20,5.12,,
1.3467mS,5.20,5.12,,
1.3473mS,5.20,5.12,,
1.3480mS,5.20,5.12,,
1.3487mS,5.20,5.12,,
1.3493mS,5.20,5.12,,
1.3500mS,5.20,5.12,,
1.3507mS,5.20,5.12,,
1.3513mS,5.20,5.12,,
1.3520mS,5.20,5.12,,
1.3527mS,5.20,5.12,,
1.3533mS,5.16,5.12,,
1.3540mS,5.20,5.12,,
1.3547mS,5.20,5.12,,
1.3553mS,5.20,5.12,,
1.3560mS,5.20,5.12,,
1.3567mS,5.20,5.12,,
1.3573mS,5.20,5.12,,
1.3580mS,5.20,5.12,,
1.3587mS,5.20,5.12,,
1.3593mS,5.20,5.12,,
1.3600mS,5.20,5.12,,
1.3607mS,5.20,5.12,,
1.3613mS,5.20,5.12,,
1.3620mS,5.20,5.12,,
1.3627mS,5.20,5.12,,
1.3633mS,5.20,5.12,,
1.3640mS,5.20,5.12,,
1.3647mS,5.20,5.12,,
1.3653mS,5.20,5.12,,
1.3660mS,5.20,5.12,,
1.3667mS,5.16,5.12,,
1.3673mS,5.20,5.12,,
1.3680mS,5.20,5.12,,
1.3687mS,5.20,5.12,,
1.3693mS,5.20,5.12,,
1.3700mS,5.20,5.12,,
1.3707mS,5.20,5.12,,
1.3713mS,5.20,5.12,,
1.3720mS,5.20,5.12,,
1.3727mS,5.20,5.12,,
1.3733mS,5.20,5.12,,
1.3740mS,5.20,5.12,,
1.3747mS,5.20,5.12,,
1.3753mS,5.20,5.12,,
1.3760mS,5.20,5.12,,
1.3767mS,5.20,5.12,,
1.3773mS,5.20,5.12,,
1.3780mS,5.20,5.12,,
1.3787mS,5.20,5.12,,
1.3793mS,5.20,5.12,,
1.3800mS,5.20,5.12,,
1.3807mS,5.20,5.12,,
1.3813mS,5.20,5.12,,
1.3820mS,5.20,5.12,,
1.3827mS,5.20,5.12,,
1.3833mS,5.20,5.12,,
1.3840mS,5.20,5.12,,
1.3847mS,5.20,5.12,,
1.3853mS,5.20,5.12,,
1.3860mS,5.20,5.12,,
1.3867mS,5.20,5.12,,
1.3873mS,5.20,5.12,,
1.3880mS,5.20,5.12,,
1.3887mS,5.20,5.12,,
1.3893mS,5.20,5.12,,
1.3900mS,5.20,5.12,,
1.3907mS,5.20,5.12,,
1.3913mS,5.20,5.12,,
1.3920mS,5.20,5.12,,
1.3927mS,5.20,5.12,,
1.3933mS,5.20,5.12,,
1.3940mS,5.20,5.12,,
1.3947mS,5.20,5.12,,
1.3953mS,5.20,5.12,,
1.3960mS,5.20,5.12,,
1.3967mS,5.20,5.12,,
1.3973mS,5.20,5.12,,
1.3980mS,5.16,5.12,,
1.3987mS,5.20,5.12,,
1.3993mS,5.20,5.12,,
1.4000mS,5.20,5.12,,
1.4007mS,5.20,5.12,,
1.4013mS,5.20,5.12,,
1.4020mS,5.20,5.12,,
1.4027mS,5.20,5.12,,
1.4033mS,5.20,5.12,,
1.4040mS,5.20,5.12,,
1.4047mS,5.20,5.12,,
1.4053mS,5.20,5.12,,
1.4060mS,5.20,5.12,,
1.4067mS,5.20,5.12,,
1.4073mS,5.20,5.08,,
1.4080mS,5.20,5.12,,
1.4087mS,5.20,5.12,,
1.4093mS,5.20,5.12,,
1.4100mS,5.16,5.12,,
1.4107mS,5.20,5.12,,
1.4113mS,5.20,5.12,,
1.4120mS,5.20,5.12,,
1.4127mS,5.20,5.12,,
1.4133mS,5.20,5.08,,
1.4140mS,5.20,5.12,,
1.4147mS,5.20,5.12,,
1.4153mS,5.20,5.12,,
1.4160mS,5.20,5.12,,
1.4167mS,5.20,5.12,,
1.4173mS,5.20,5.12,,
1.4180mS,5.20,5.12,,
1.4187mS,5.20,5.12,,
1.4193mS,5.20,5.12,,
1.4200mS,5.20,5.12,,
1.4207mS,5.20,5.12,,
1.4213mS,5.16,5.12,,
1.4220mS,5.20,5.12,,
1.4227mS,5.20,5.12,,
1.4233mS,5.20,5.12,,
1.4240mS,5.20,5.12,,
1.4247mS,5.20,5.12,,
1.4253mS,5.20,5.12,,
1.4260mS,5.20,5.12,,
1.4267mS,5.20,5.12,,
1.4273mS,5.20,5.12,,
1.4280mS,5.20,5.12,,
1.4287mS,5.20,5.12,,
1.4293mS,5.20,5.12,,
1.4300mS,5.20,5.12,,
1.4307mS,5.20,5.12,,
1.4313mS,5.20,5.12,,
1.4320mS,5.20,5.12,,
1.4327mS,5.20,5.12,,
1.4333mS,5.20,5.12,,
1.4340mS,5.20,5.12,,
1.4347mS,5.20,5.12,,
1.4353mS,5.20,5.16,,
1.4360mS,5.20,5.12,,
1.4367mS,5.20,5.12,,
1.4373mS,5.20,5.12,,
1.4380mS,5.20,5.12,,
1.4387mS,5.20,5.12,,
1.4393mS,5.20,5.12,,
1.4400mS,5.20,5.12,,
1.4407mS,5.20,5.12,,
1.4413mS,5.20,5.12,,
1.4420mS,5.20,5.12,,
1.4427mS,5.20,5.12,,
1.4433mS,5.20,5.12,,
1.4440mS,5.20,5.12,,
1.4447mS,5.20,5.12,,
1.4453mS,5.20,5.12,,
1.4460mS,5.20,5.12,,
1.4467mS,5.20,5.12,,
1.4473mS,5.20,5.12,,
1.4480mS,5.20,5.12,,
1.4487mS,5.20,5.12,,
1.4493mS,5.20,5.12,,
1.4500mS,5.20,5.12,,
1.4507mS,5.20,5.12,,
1.4513mS,5.20,5.12,,
1.4520mS,5.20,5.12,,
1.4527mS,5.16,5.12,,
1.4533mS,5.20,5.12,,
1.4540mS,5.20,5.12,,
1.4547mS,5.20,5.12,,
1.4553mS,5.20,5.12,,
1.4560mS,5.20,5.12,,
1.4567mS,5.20,5.12,,
1.4573mS,5.20,5.12,,
1.4580mS,5.20,5.12,,
1.4587mS,5.20,5.12,,
1.4593mS,5.20,5.12,,
1.4600mS,5.20,5.12,,
1.4607mS,5.20,5.12,,
1.4613mS,5.20,5.12,,
1.4620mS,5.20,5.12,,
1.4627mS,5.16,5.12,,
1.4633mS,5.20,5.12,,
1.4640mS,5.20,5.12,,
1.4647mS,5.20,5.12,,
1.4653mS,5.20,5.12,,
1.4660mS,5.20,5.12,,
1.4667mS,5.20,5.12,,
1.4673mS,5.20,5.12,,
1.4680mS,5.20,5.12,,
1.4687mS,5.20,5.12,,
1.4693mS,5.20,5.12,,
1.4700mS,5.20,5.12,,
1.4707mS,5.20,5.12,,
1.4713mS,5.20,5.12,,
1.4720mS,5.20,5.12,,
1.4727mS,5.20,5.12,,
1.4733mS,5.20,5.12,,
1.4740mS,5.20,5.12,,
1.4747mS,5.20,5.12,,
1.4753mS,5.20,5.12,,
1.4760mS,5.20,5.16,,
1.4767mS,5.20,5.12,,
1.4773mS,5.16,5.12,,
1.4780mS,5.20,5.12,,
1.4787mS,5.20,5.12,,
1.4793mS,5.20,5.12,,
1.4800mS,5.16,5.08,,
1.4807mS,5.20,5.12,,
1.4813mS,5.20,5.12,,
1.4820mS,5.20,5.12,,
1.4827mS,5.20,5.12,,
1.4833mS,5.20,5.12,,
1.4840mS,5.20,5.12,,
1.4847mS,5.20,5.12,,
1.4853mS,5.20,5.12,,
1.4860mS,5.20,5.12,,
1.4867mS,5.20,5.12,,
1.4873mS,5.20,5.12,,
1.4880mS,5.20,5.12,,
1.4887mS,5.20,5.12,,
1.4893mS,5.20,5.12,,
1.4900mS,5.20,5.12,,
1.4907mS,5.20,5.12,,
1.4913mS,5.20,5.12,,
1.4920mS,5.20,5.12,,
1.4927mS,5.20,5.12,,
1.4933mS,5.20,5.12,,
1.4940mS,5.20,5.12,,
1.4947mS,5.20,5.12,,
1.4953mS,5.20,5.12,,
1.4960mS,5.20,5.12,,
1.4967mS,5.20,5.12,,
1.4973mS,5.20,5.12,,
1.4980mS,5.20,5.12,,
1.4987mS,5.20,5.12,,
1.4993mS,5.20,5.12,,
1.5000mS,5.20,5.12,,
1.5007mS,5.20,5.12,,
1.5013mS,5.20,5.12,,
1.5020mS,5.20,5.12,,
1.5027mS,5.20,5.12,,
1.5033mS,5.20,5.12,,
1.5040mS,5.20,5.12,,
1.5047mS,5.20,5.12,,
1.5053mS,5.16,5.12,,
1.5060mS,5.20,5.12,,
1.5067mS,5.20,5.12,,
1.5073mS,5.20,5.12,,
1.5080mS,5.20,5.12,,
1.5087mS,5.20,5.12,,
1.5093mS,5.20,5.12,,
1.5100mS,5.20,5.12,,
1.5107mS,5.20,5.12,,
1.5113mS,5.20,5.12,,
1.5120mS,5.20,5.12,,
1.5127mS,5.20,5.12,,
1.5133mS,5.20,5.12,,
1.5140mS,5.20,5.12,,
1.5147mS,5.20,5.12,,
1.5153mS,5.20,5.12,,
1.5160mS,5.20,5.12,,
1.5167mS,5.20,5.12,,
1.5173mS,5.20,5.12,,
1.5180mS,5.20,5.12,,
1.5187mS,5.20,5.12,,
1.5193mS,5.20,5.12,,
1.5200mS,5.20,5.12,,
1.5207mS,5.20,5.12,,
1.5213mS,5.20,5.12,,
1.5220mS,5.20,5.12,,
1.5227mS,5.20,5.12,,
1.5233mS,5.20,5.12,,
1.5240mS,5.20,5.12,,
1.5247mS,5.20,5.12,,
1.5253mS,5.20,5.12,,
1.5260mS,5.20,5.12,,
1.5267mS,5.20,5.12,,
1.5273mS,5.20,5.12,,
1.5280mS,5.20,5.12,,
1.5287mS,5.20,5.12,,
1.5293mS,5.20,5.12,,
1.5300mS,5.16,5.12,,
1.5307mS,5.20,5.12,,
1.5313mS,5.20,5.12,,
1.5320mS,5.20,5.12,,
1.5327mS,5.20,5.12,,
1.5333mS,5.20,5.12,,
1.5340mS,5.16,5.12,,
1.5347mS,5.20,5.12,,
1.5353mS,5.20,5.12,,
1.5360mS,5.20,5.12,,
1.5367mS,5.20,5.12,,
1.5373mS,5.20,5.12,,
1.5380mS,5.20,5.12,,
1.5387mS,5.20,5.12,,
1.5393mS,5.20,5.12,,
1.5400mS,5.20,5.12,,
1.5407mS,5.20,5.12,,
1.5413mS,5.20,5.12,,
1.5420mS,5.20,5.12,,
1.5427mS,5.20,5.12,,
1.5433mS,5.20,5.12,,
1.5440mS,5.20,5.12,,
1.5447mS,5.20,5.12,,
1.5453mS,5.20,5.12,,
1.5460mS,5.20,5.12,,
1.5467mS,5.20,5.12,,
1.5473mS,5.20,5.12,,
1.5480mS,5.20,5.12,,
1.5487mS,5.20,5.12,,
1.5493mS,5.20,5.12,,
1.5500mS,5.20,5.12,,
1.5507mS,5.20,5.12,,
1.5513mS,5.20,5.12,,
1.5520mS,5.20,5.12,,
1.5527mS,5.20,5.12,,
1.5533mS,5.20,5.12,,
1.5540mS,5.20,5.12,,
1.5547mS,5.20,5.12,,
1.5553mS,5.20,5.12,,
1.5560mS,5.20,5.12,,
1.5567mS,5.20,5.12,,
1.5573mS,5.20,5.12,,
1.5580mS,5.20,5.12,,
1.5587mS,5.16,5.08,,
1.5593mS,5.20,5.12,,
1.5600mS,5.20,5.12,,
1.5607mS,5.20,5.12,,
1.5613mS,5.20,5.12,,
1.5620mS,5.20,5.12,,
1.5627mS,5.20,5.12,,
1.5633mS,5.20,5.12,,
1.5640mS,5.20,5.12,,
1.5647mS,5.20,5.12,,
1.5653mS,5.20,5.12,,
1.5660mS,5.20,5.12,,
1.5667mS,5.20,5.12,,
1.5673mS,5.20,5.12,,
1.5680mS,5.20,5.12,,
1.5687mS,5.20,5.12,,
1.5693mS,5.20,5.12,,
1.5700mS,5.20,5.12,,
1.5707mS,5.20,5.12,,
1.5713mS,5.20,5.12,,
1.5720mS,5.20,5.12,,
1.5727mS,5.20,5.12,,
1.5733mS,5.20,5.12,,
1.5740mS,5.20,5.12,,
1.5747mS,5.20,5.12,,
1.5753mS,5.20,5.12,,
1.5760mS,5.20,5.12,,
1.5767mS,5.20,5.12,,
1.5773mS,5.20,5.12,,
1.5780mS,5.20,5.12,,
1.5787mS,5.20,5.12,,
1.5793mS,5.16,5.12,,
1.5800mS,5.20,5.12,,
1.5807mS,5.20,5.12,,
1.5813mS,5.20,5.12,,
1.5820mS,5.20,5.12,,
1.5827mS,5.16,5.08,,
1.5833mS,5.20,5.12,,
1.5840mS,5.20,5.12,,
1.5847mS,5.20,5.12,,
1.5853mS,5.20,5.12,,
1.5860mS,5.20,5.12,,
1.5867mS,5.20,5.12,,
1.5873mS,5.20,5.12,,
1.5880mS,5.20,5.12,,
1.5887mS,5.20,5.12,,
1.5893mS,5.20,5.12,,
1.5900mS,5.20,5.12,,
1.5907mS,5.20,5.12,,
1.5913mS,5.20,5.12,,
1.5920mS,5.20,5.12,,
1.5927mS,5.20,5.12,,
1.5933mS,5.20,5.12,,
1.5940mS,5.20,5.12,,
1.5947mS,5.20,5.12,,
1.5953mS,5.20,5.12,,
1.5960mS,5.20,5.12,,
1.5967mS,5.20,5.12,,
1.5973mS,5.20,5.12,,
1.5980mS,5.20,5.12,,
1.5987mS,5.20,5.16,,
1.5993mS,5.20,5.12,,
1.6000mS,5.20,5.12,,
1.6007mS,5.20,5.12,,
1.6013mS,5.20,5.12,,
1.6020mS,5.20,5.12,,
1.6027mS,5.20,5.12,,
1.6033mS,5.20,5.12,,
1.6040mS,5.20,5.12,,
1.6047mS,5.20,5.12,,
1.6053mS,5.20,5.12,,
1.6060mS,5.20,5.12,,
1.6067mS,5.20,5.12,,
1.6073mS,5.20,5.12,,
1.6080mS,5.20,5.12,,
1.6087mS,5.20,5.12,,
1.6093mS,5.20,5.12,,
1.6100mS,5.20,5.12,,
1.6107mS,5.20,5.12,,
1.6113mS,5.20,5.12,,
1.6120mS,5.20,5.12,,
1.6127mS,5.20,5.12,,
1.6133mS,5.20,5.12,,
1.6140mS,5.20,5.12,,
1.6147mS,5.20,5.12,,
1.6153mS,5.20,5.12,,
1.6160mS,5.20,5.12,,
1.6167mS,5.20,5.12,,
1.6173mS,5.20,5.12,,
1.6180mS,5.20,5.12,,
1.6187mS,5.20,5.12,,
1.6193mS,5.20,5.12,,
1.6200mS,5.20,5.12,,
1.6207mS,5.20,5.12,,
1.6213mS,5.20,5.12,,
1.6220mS,5.20,5.12,,
1.6227mS,5.20,5.12,,
1.6233mS,5.20,5.12,,
1.6240mS,5.20,5.12,,
1.6247mS,5.20,5.12,,
1.6253mS,5.20,5.12,,
1.6260mS,5.20,5.12,,
1.6267mS,5.20,5.12,,
1.6273mS,5.20,5.12,,
1.6280mS,5.20,5.12,,
1.6287mS,5.20,5.12,,
1.6293mS,5.20,5.12,,
1.6300mS,5.20,5.12,,
1.6307mS,5.20,5.12,,
1.6313mS,5.20,5.12,,
1.6320mS,5.20,5.12,,
1.6327mS,5.20,5.12,,
1.6333mS,5.20,5.12,,
1.6340mS,5.20,5.12,,
1.6347mS,5.20,5.12,,
1.6353mS,5.20,5.12,,
1.6360mS,5.20,5.12,,
1.6367mS,5.20,5.12,,
1.6373mS,5.20,5.12,,
1.6380mS,5.20,5.12,,
1.6387mS,5.20,5.12,,
1.6393mS,5.20,5.12,,
1.6400mS,5.20,5.12,,
1.6407mS,5.20,5.12,,
1.6413mS,5.20,5.12,,
1.6420mS,5.20,5.12,,
1.6427mS,5.20,5.12,,
1.6433mS,5.20,5.12,,
1.6440mS,5.20,5.12,,
1.6447mS,5.20,5.12,,
1.6453mS,5.20,5.12,,
1.6460mS,5.20,5.12,,
1.6467mS,5.20,5.12,,
1.6473mS,5.20,5.12,,
1.6480mS,5.20,5.12,,
1.6487mS,5.20,5.12,,
1.6493mS,5.20,5.12,,
1.6500mS,5.20,5.12,,
1.6507mS,5.20,5.12,,
1.6513mS,5.20,5.12,,
1.6520mS,5.20,5.12,,
1.6527mS,5.20,5.12,,
1.6533mS,5.20,5.12,,
1.6540mS,5.20,5.12,,
1.6547mS,5.20,5.12,,
1.6553mS,5.20,5.12,,
1.6560mS,5.20,5.12,,
1.6567mS,5.20,5.12,,
1.6573mS,5.20,5.12,,
1.6580mS,5.20,5.12,,
1.6587mS,5.20,5.12,,
1.6593mS,5.20,5.12,,
1.6600mS,5.20,5.12,,
1.6607mS,5.16,5.12,,
1.6613mS,5.20,5.12,,
1.6620mS,5.20,5.12,,
1.6627mS,5.20,5.12,,
1.6633mS,5.20,5.12,,
1.6640mS,5.20,5.12,,
1.6647mS,5.20,5.12,,
1.6653mS,5.20,5.12,,
1.6660mS,5.20,5.12,,
1.6667mS,5.20,5.12,,
1.6673mS,5.20,5.12,,
1.6680mS,5.20,5.12,,
1.6687mS,5.20,5.12,,
1.6693mS,5.20,5.12,,
1.6700mS,5.20,5.16,,
1.6707mS,5.20,5.12,,
1.6713mS,5.20,5.12,,
1.6720mS,5.20,5.12,,
1.6727mS,5.20,5.12,,
1.6733mS,5.20,5.12,,
1.6740mS,5.20,5.12,,
1.6747mS,5.20,5.12,,
1.6753mS,5.20,5.12,,
1.6760mS,5.20,5.12,,
1.6767mS,5.20,5.12,,
1.6773mS,5.20,5.12,,
1.6780mS,5.20,5.12,,
1.6787mS,5.20,5.12,,
1.6793mS,5.20,5.12,,
1.6800mS,5.20,5.12,,
1.6807mS,5.20,5.12,,
1.6813mS,5.20,5.12,,
1.6820mS,5.20,5.12,,
1.6827mS,5.20,5.12,,
1.6833mS,5.20,5.12,,
1.6840mS,5.20,5.12,,
1.6847mS,5.20,5.12,,
1.6853mS,5.20,5.12,,
1.6860mS,5.20,5.12,,
1.6867mS,5.20,5.12,,
1.6873mS,5.20,5.16,,
1.6880mS,5.20,5.12,,
1.6887mS,5.16,5.08,,
1.6893mS,5.20,5.12,,
1.6900mS,5.20,5.12,,
1.6907mS,5.20,5.12,,
1.6913mS,5.20,5.12,,
1.6920mS,5.16,5.12,,
1.6927mS,5.20,5.12,,
1.6933mS,5.20,5.12,,
1.6940mS,5.20,5.12,,
1.6947mS,5.20,5.12,,
1.6953mS,5.20,5.12,,
1.6960mS,5.20,5.12,,
1.6967mS,5.20,5.12,,
1.6973mS,5.20,5.12,,
1.6980mS,5.20,5.12,,
1.6987mS,5.20,5.12,,
1.6993mS,5.20,5.12,,
1.7000mS,5.20,5.12,,
1.7007mS,5.20,5.12,,
1.7013mS,5.20,5.12,,
1.7020mS,5.20,5.12,,
1.7027mS,5.20,5.12,,
1.7033mS,5.20,5.12,,
1.7040mS,5.20,5.12,,
1.7047mS,5.20,5.12,,
1.7053mS,5.20,5.12,,
1.7060mS,5.20,5.12,,
1.7067mS,5.20,5.12,,
1.7073mS,5.20,5.12,,
1.7080mS,5.20,5.12,,
1.7087mS,5.20,5.12,,
1.7093mS,5.20,5.12,,
1.7100mS,5.20,5.12,,
1.7107mS,5.20,5.12,,
1.7113mS,5.20,5.12,,
1.7120mS,5.20,5.12,,
1.7127mS,5.20,5.08,,
1.7133mS,5.20,5.12,,
1.7140mS,5.16,5.12,,
1.7147mS,5.20,5.12,,
1.7153mS,5.20,5.12,,
1.7160mS,5.16,5.12,,
1.7167mS,5.20,5.12,,
1.7173mS,5.20,5.12,,
1.7180mS,5.20,5.12,,
1.7187mS,5.20,5.12,,
1.7193mS,5.20,5.12,,
1.7200mS,5.20,5.12,,
1.7207mS,5.20,5.12,,
1.7213mS,5.16,5.12,,
1.7220mS,5.20,5.12,,
1.7227mS,5.20,5.12,,
1.7233mS,5.20,5.12,,
1.7240mS,5.20,5.12,,
1.7247mS,5.20,5.12,,
1.7253mS,5.20,5.12,,
1.7260mS,5.16,5.12,,
1.7267mS,5.20,5.12,,
1.7273mS,5.20,5.12,,
1.7280mS,5.20,5.12,,
1.7287mS,5.20,5.12,,
1.7293mS,5.20,5.12,,
1.7300mS,5.20,5.12,,
1.7307mS,5.20,5.12,,
1.7313mS,5.20,5.12,,
1.7320mS,5.20,5.12,,
1.7327mS,5.20,5.12,,
1.7333mS,5.20,5.12,,
1.7340mS,5.20,5.12,,
1.7347mS,5.20,5.12,,
1.7353mS,5.20,5.12,,
1.7360mS,5.20,5.12,,
1.7367mS,5.20,5.12,,
1.7373mS,5.20,5.12,,
1.7380mS,5.20,5.12,,
1.7387mS,5.20,5.12,,
1.7393mS,5.20,5.12,,
1.7400mS,5.20,5.08,,
1.7407mS,5.20,5.12,,
1.7413mS,5.20,5.12,,
1.7420mS,5.20,5.12,,
1.7427mS,5.20,5.12,,
1.7433mS,5.20,5.12,,
1.7440mS,5.20,5.12,,
1.7447mS,5.20,5.12,,
1.7453mS,5.20,5.12,,
1.7460mS,5.20,5.12,,
1.7467mS,5.20,5.12,,
1.7473mS,5.20,5.12,,
1.7480mS,5.20,5.12,,
1.7487mS,5.20,5.12,,
1.7493mS,5.20,5.12,,
1.7500mS,5.20,5.12,,
1.7507mS,5.20,5.12,,
1.7513mS,5.20,5.12,,
1.7520mS,5.16,5.12,,
1.7527mS,5.20,5.12,,
1.7533mS,5.20,5.12,,
1.7540mS,5.20,5.12,,
1.7547mS,5.20,5.12,,
1.7553mS,5.20,5.12,,
1.7560mS,5.20,5.12,,
1.7567mS,5.20,5.12,,
1.7573mS,5.20,5.12,,
1.7580mS,5.20,5.12,,
1.7587mS,5.20,5.12,,
1.7593mS,5.20,5.12,,
1.7600mS,5.20,5.12,,
1.7607mS,5.20,5.12,,
1.7613mS,5.20,5.12,,
1.7620mS,5.20,5.12,,
1.7627mS,5.20,5.12,,
1.7633mS,5.20,5.12,,
1.7640mS,5.20,5.12,,
1.7647mS,5.20,5.12,,
1.7653mS,5.20,5.12,,
1.7660mS,5.20,5.12,,
1.7667mS,5.20,5.12,,
1.7673mS,5.20,5.12,,
1.7680mS,5.20,5.12,,
1.7687mS,5.16,5.12,,
1.7693mS,5.20,5.12,,
1.7700mS,5.20,5.12,,
1.7707mS,5.16,5.08,,
1.7713mS,5.20,5.12,,
1.7720mS,5.20,5.12,,
1.7727mS,5.20,5.12,,
1.7733mS,5.20,5.12,,
1.7740mS,5.20,5.12,,
1.7747mS,5.20,5.12,,
1.7753mS,5.20,5.12,,
1.7760mS,5.20,5.12,,
1.7767mS,5.16,5.12,,
1.7773mS,5.20,5.12,,
1.7780mS,5.20,5.12,,
1.7787mS,5.20,5.12,,
1.7793mS,5.20,5.12,,
1.7800mS,5.20,5.12,,
1.7807mS,5.20,5.12,,
1.7813mS,5.20,5.12,,
1.7820mS,5.20,5.12,,
1.7827mS,5.20,5.12,,
1.7833mS,5.20,5.12,,
1.7840mS,5.16,5.12,,
1.7847mS,5.20,5.12,,
1.7853mS,5.20,5.12,,
1.7860mS,5.20,5.12,,
1.7867mS,5.20,5.12,,
1.7873mS,5.20,5.12,,
1.7880mS,5.20,5.12,,
1.7887mS,5.20,5.12,,
1.7893mS,5.20,5.12,,
1.7900mS,5.20,5.12,,
1.7907mS,5.20,5.12,,
1.7913mS,5.20,5.12,,
1.7920mS,5.20,5.12,,
1.7927mS,5.20,5.12,,
1.7933mS,5.20,5.12,,
1.7940mS,5.20,5.12,,
1.7947mS,5.20,5.12,,
1.7953mS,5.16,5.12,,
1.7960mS,5.20,5.12,,
1.7967mS,5.20,5.12,,
1.7973mS,5.20,5.12,,
1.7980mS,5.20,5.12,,
1.7987mS,5.20,5.12,,
1.7993mS,5.20,5.12,,
1.8000mS,5.20,5.12,,
1.8007mS,5.16,5.12,,
1.8013mS,5.20,5.12,,
1.8020mS,5.20,5.12,,
1.8027mS,5.20,5.12,,
1.8033mS,5.20,5.12,,
1.8040mS,5.20,5.12,,
1.8047mS,5.20,5.12,,
1.8053mS,5.16,5.12,,
1.8060mS,5.20,5.12,,
1.8067mS,5.20,5.12,,
1.8073mS,5.20,5.12,,
1.8080mS,5.20,5.12,,
1.8087mS,5.20,5.12,,
1.8093mS,5.20,5.12,,
1.8100mS,5.20,5.12,,
1.8107mS,5.20,5.12,,
1.8113mS,5.20,5.12,,
1.8120mS,5.20,5.12,,
1.8127mS,5.20,5.12,,
1.8133mS,5.20,5.12,,
1.8140mS,5.20,5.12,,
1.8147mS,5.20,5.12,,
1.8153mS,5.20,5.12,,
1.8160mS,5.20,5.12,,
1.8167mS,5.20,5.12,,
1.8173mS,5.20,5.12,,
1.8180mS,5.20,5.12,,
1.8187mS,5.20,5.12,,
1.8193mS,5.20,5.12,,
1.8200mS,5.20,5.12,,
1.8207mS,5.20,5.12,,
1.8213mS,5.20,5.12,,
1.8220mS,5.20,5.12,,
1.8227mS,5.20,5.12,,
1.8233mS,5.20,5.12,,
1.8240mS,5.20,5.12,,
1.8247mS,5.20,5.12,,
1.8253mS,5.20,5.12,,
1.8260mS,5.20,5.12,,
1.8267mS,5.20,5.12,,
1.8273mS,5.20,5.12,,
1.8280mS,5.20,5.12,,
1.8287mS,5.20,5.08,,
1.8293mS,5.20,5.12,,
1.8300mS,5.20,5.12,,
1.8307mS,5.20,5.12,,
1.8313mS,5.20,5.12,,
1.8320mS,5.20,5.12,,
1.8327mS,5.20,5.12,,
1.8333mS,5.20,5.12,,
1.8340mS,5.20,5.12,,
1.8347mS,5.20,5.12,,
1.8353mS,5.20,5.12,,
1.8360mS,5.20,5.12,,
1.8367mS,5.20,5.12,,
1.8373mS,5.20,5.12,,
1.8380mS,5.20,5.12,,
1.8387mS,5.20,5.12,,
1.8393mS,5.20,5.12,,
1.8400mS,5.20,5.12,,
1.8407mS,5.20,5.12,,
1.8413mS,5.20,5.12,,
1.8420mS,5.20,5.12,,
1.8427mS,5.20,5.12,,
1.8433mS,5.20,5.12,,
1.8440mS,5.20,5.12,,
1.8447mS,5.20,5.12,,
1.8453mS,5.20,5.12,,
1.8460mS,5.20,5.12,,
1.8467mS,5.20,5.12,,
1.8473mS,5.20,5.12,,
1.8480mS,5.20,5.12,,
1.8487mS,5.20,5.12,,
1.8493mS,5.20,5.12,,
1.8500mS,5.20,5.12,,
1.8507mS,5.20,5.12,,
1.8513mS,5.20,5.12,,
1.8520mS,5.20,5.12,,
1.8527mS,5.16,5.12,,
1.8533mS,5.20,5.12,,
1.8540mS,5.20,5.12,,
1.8547mS,5.20,5.12,,
1.8553mS,5.16,5.12,,
1.8560mS,5.16,5.12,,
1.8567mS,5.20,5.12,,
1.8573mS,5.20,5.12,,
1.8580mS,5.20,5.12,,
1.8587mS,5.20,5.12,,
1.8593mS,5.20,5.12,,
1.8600mS,5.20,5.12,,
1.8607mS,5.20,5.12,,
1.8613mS,5.20,5.12,,
1.8620mS,5.20,5.12,,
1.8627mS,5.20,5.12,,
1.8633mS,5.20,5.12,,
1.8640mS,5.20,5.12,,
1.8647mS,5.20,5.12,,
1.8653mS,5.20,5.12,,
1.8660mS,5.20,5.12,,
1.8667mS,5.20,5.12,,
1.8673mS,5.20,5.12,,
1.8680mS,5.20,5.12,,
1.8687mS,5.20,5.12,,
1.8693mS,5.20,5.12,,
1.8700mS,5.20,5.12,,
1.8707mS,5.20,5.12,,
1.8713mS,5.20,5.12,,
1.8720mS,5.20,5.12,,
1.8727mS,5.20,5.12,,
1.8733mS,5.20,5.12,,
1.8740mS,5.20,5.12,,
1.8747mS,5.20,5.12,,
1.8753mS,5.16,5.12,,
1.8760mS,5.20,5.12,,
1.8767mS,5.20,5.12,,
1.8773mS,5.20,5.12,,
1.8780mS,5.20,5.12,,
1.8787mS,5.20,5.12,,
1.8793mS,5.20,5.12,,
1.8800mS,5.20,5.12,,
1.8807mS,5.20,5.12,,
1.8813mS,5.20,5.12,,
1.8820mS,5.20,5.12,,
1.8827mS,5.20,5.12,,
1.8833mS,5.20,5.12,,
1.8840mS,5.20,5.12,,
1.8847mS,5.20,5.12,,
1.8853mS,5.20,5.12,,
1.8860mS,5.20,5.12,,
1.8867mS,5.20,5.12,,
1.8873mS,5.20,5.12,,
1.8880mS,5.20,5.12,,
1.8887mS,5.20,5.12,,
1.8893mS,5.20,5.12,,
1.8900mS,5.20,5.12,,
1.8907mS,5.20,5.12,,
1.8913mS,5.20,5.12,,
1.8920mS,5.20,5.12,,
1.8927mS,5.20,5.12,,
1.8933mS,5.20,5.12,,
1.8940mS,5.20,5.12,,
1.8947mS,5.20,5.12,,
1.8953mS,5.20,5.12,,
1.8960mS,5.20,5.12,,
1.8967mS,5.20,5.12,,
1.8973mS,5.20,5.12,,
1.8980mS,5.20,5.12,,
1.8987mS,5.20,5.12,,
1.8993mS,5.20,5.12,,
1.9000mS,5.20,5.12,,
1.9007mS,5.20,5.12,,
1.9013mS,5.20,5.12,,
1.9020mS,5.20,5.12,,
1.9027mS,5.20,5.12,,
1.9033mS,5.20,5.12,,
1.9040mS,5.20,5.12,,
1.9047mS,5.20,5.12,,
1.9053mS,5.20,5.12,,
1.9060mS,5.20,5.12,,
1.9067mS,5.20,5.12,,
1.9073mS,5.20,5.12,,
1.9080mS,5.20,5.12,,
1.9087mS,5.20,5.12,,
1.9093mS,5.20,5.12,,
1.9100mS,5.20,5.12,,
1.9107mS,5.20,5.12,,
1.9113mS,5.20,5.12,,
1.9120mS,5.20,5.12,,
1.9127mS,5.20,5.12,,
1.9133mS,5.20,5.12,,
1.9140mS,5.20,5.12,,
1.9147mS,5.20,5.12,,
1.9153mS,5.20,5.12,,
1.9160mS,5.20,5.12,,
1.9167mS,5.20,5.12,,
1.9173mS,5.20,5.12,,
1.9180mS,5.20,5.12,,
1.9187mS,5.20,5.12,,
1.9193mS,5.20,5.12,,
1.9200mS,5.20,5.12,,
1.9207mS,5.20,5.12,,
1.9213mS,5.20,5.12,,
1.9220mS,5.20,5.12,,
1.9227mS,5.20,5.12,,
1.9233mS,5.20,5.12,,
1.9240mS,5.20,5.12,,
1.9247mS,5.20,5.12,,
1.9253mS,5.16,5.12,,
1.9260mS,5.20,5.12,,
1.9267mS,5.20,5.12,,
1.9273mS,5.20,5.12,,
1.9280mS,5.20,5.12,,
1.9287mS,5.20,5.12,,
1.9293mS,5.20,5.12,,
1.9300mS,5.20,5.12,,
1.9307mS,5.20,5.12,,
1.9313mS,5.20,5.12,,
1.9320mS,5.20,5.12,,
1.9327mS,5.20,5.12,,
1.9333mS,5.20,5.12,,
1.9340mS,5.20,5.12,,
1.9347mS,5.20,5.12,,
1.9353mS,5.20,5.12,,
1.9360mS,5.20,5.12,,
1.9367mS,5.20,5.12,,
1.9373mS,5.20,5.12,,
1.9380mS,5.20,5.12,,
1.9387mS,5.20,5.12,,
1.9393mS,5.20,5.12,,
1.9400mS,5.20,5.12,,
1.9407mS,5.16,5.12,,
1.9413mS,5.16,5.12,,
1.9420mS,5.20,5.12,,
1.9427mS,5.20,5.12,,
1.9433mS,5.20,5.12,,
1.9440mS,5.20,5.12,,
1.9447mS,5.20,5.12,,
1.9453mS,5.20,5.12,,
1.9460mS,5.20,5.12,,
1.9467mS,5.20,5.12,,
1.9473mS,5.20,5.12,,
1.9480mS,5.20,5.12,,
1.9487mS,5.20,5.12,,
1.9493mS,5.20,5.12,,
1.9500mS,5.20,5.12,,
1.9507mS,5.20,5.12,,
1.9513mS,5.20,5.12,,
1.9520mS,5.20,5.12,,
1.9527mS,5.20,5.12,,
1.9533mS,5.20,5.12,,
1.9540mS,5.20,5.12,,
1.9547mS,5.20,5.12,,
1.9553mS,5.20,5.12,,
1.9560mS,5.20,5.12,,
1.9567mS,5.20,5.12,,
1.9573mS,5.20,5.12,,
1.9580mS,5.20,5.12,,
1.9587mS,5.20,5.12,,
1.9593mS,5.20,5.12,,
1.9600mS,5.20,5.12,,
1.9607mS,5.20,5.12,,
1.9613mS,5.20,5.12,,
1.9620mS,5.20,5.12,,
1.9627mS,5.20,5.12,,
1.9633mS,5.20,5.12,,
1.9640mS,5.20,5.12,,
1.9647mS,5.20,5.12,,
1.9653mS,5.20,5.12,,
1.9660mS,5.20,5.12,,
1.9667mS,5.20,5.12,,
1.9673mS,5.20,5.12,,
1.9680mS,5.20,5.12,,
1.9687mS,5.20,5.12,,
1.9693mS,5.20,5.12,,
1.9700mS,5.20,5.12,,
1.9707mS,5.20,5.12,,
1.9713mS,5.20,5.12,,
1.9720mS,5.16,5.12,,
1.9727mS,5.20,5.12,,
1.9733mS,5.20,5.12,,
1.9740mS,5.20,5.12,,
1.9747mS,5.20,5.12,,
1.9753mS,5.20,5.08,,
1.9760mS,5.20,5.12,,
1.9767mS,5.20,5.12,,
1.9773mS,5.20,5.12,,
1.9780mS,5.20,5.12,,
1.9787mS,5.20,5.12,,
1.9793mS,5.20,5.12,,
1.9800mS,5.20,5.12,,
1.9807mS,5.20,5.12,,
1.9813mS,5.20,5.12,,
1.9820mS,5.20,5.12,,
1.9827mS,5.20,5.12,,
1.9833mS,5.20,5.12,,
1.9840mS,5.20,5.12,,
1.9847mS,5.20,5.12,,
1.9853mS,5.20,5.12,,
1.9860mS,5.20,5.12,,
1.9867mS,5.20,5.12,,
1.9873mS,5.20,5.12,,
1.9880mS,5.20,5.12,,
1.9887mS,5.20,5.12,,
1.9893mS,5.20,5.12,,
1.9900mS,5.20,5.12,,
1.9907mS,5.20,5.12,,
1.9913mS,5.20,5.12,,
1.9920mS,5.20,5.12,,
1.9927mS,5.20,5.12,,
1.9933mS,5.20,5.12,,
1.9940mS,5.20,5.12,,
1.9947mS,5.20,5.12,,
1.9953mS,5.20,5.12,,
1.9960mS,5.20,5.12,,
1.9967mS,5.20,5.12,,
1.9973mS,5.20,5.12,,
1.9980mS,5.20,5.12,,
1.9987mS,5.20,5.12,,
1.9993mS,5.20,5.12,,
2.0000mS,5.20,5.12,,
2.0007mS,5.20,5.12,,
2.0013mS,5.20,5.12,,
2.0020mS,5.20,5.12,,
2.0027mS,5.20,5.12,,
2.0033mS,5.20,5.12,,
2.0040mS,5.20,5.12,,
2.0047mS,5.20,5.12,,
2.0053mS,5.20,5.12,,
2.0060mS,5.20,5.08,,
2.0067mS,5.20,5.12,,
2.0073mS,5.20,5.12,,
2.0080mS,5.20,5.12,,
2.0087mS,5.20,5.12,,
2.0093mS,5.16,5.08,,
2.0100mS,5.20,5.12,,
2.0107mS,5.20,5.12,,
2.0113mS,5.20,5.12,,
2.0120mS,5.20,5.12,,
2.0127mS,5.20,5.12,,
2.0133mS,5.20,5.12,,
2.0140mS,5.20,5.12,,
2.0147mS,5.20,5.12,,
2.0153mS,5.20,5.12,,
2.0160mS,5.20,5.12,,
2.0167mS,5.20,5.12,,
2.0173mS,5.20,5.12,,
2.0180mS,5.20,5.12,,
2.0187mS,5.20,5.12,,
2.0193mS,5.20,5.12,,
2.0200mS,5.16,5.12,,
2.0207mS,5.20,5.12,,
2.0213mS,5.20,5.12,,
2.0220mS,5.20,5.12,,
2.0227mS,5.20,5.12,,
2.0233mS,5.20,5.12,,
2.0240mS,5.20,5.12,,
2.0247mS,5.20,5.08,,
2.0253mS,5.20,5.12,,
2.0260mS,5.20,5.12,,
2.0267mS,5.20,5.12,,
2.0273mS,5.20,5.12,,
2.0280mS,5.20,5.12,,
2.0287mS,5.20,5.12,,
2.0293mS,5.20,5.12,,
2.0300mS,5.20,5.12,,
2.0307mS,5.20,5.12,,
2.0313mS,5.20,5.12,,
2.0320mS,5.20,5.12,,
2.0327mS,5.20,5.12,,
2.0333mS,5.20,5.12,,
2.0340mS,5.20,5.12,,
2.0347mS,5.20,5.12,,
2.0353mS,5.20,5.12,,
2.0360mS,5.20,5.12,,
2.0367mS,5.20,5.12,,
2.0373mS,5.20,5.12,,
2.0380mS,5.20,5.12,,
2.0387mS,5.20,5.12,,
2.0393mS,5.20,5.08,,
2.0400mS,5.20,5.12,,
2.0407mS,5.20,5.12,,
2.0413mS,5.20,5.12,,
2.0420mS,5.20,5.12,,
2.0427mS,5.20,5.12,,
2.0433mS,5.20,5.12,,
2.0440mS,5.20,5.12,,
2.0447mS,5.20,5.12,,
2.0453mS,5.20,5.12,,
2.0460mS,5.20,5.12,,
2.0467mS,5.16,5.12,,
2.0473mS,5.20,5.12,,
2.0480mS,5.20,5.12,,
2.0487mS,5.20,5.12,,
2.0493mS,5.20,5.12,,
2.0500mS,5.20,5.12,,
2.0507mS,5.20,5.12,,
2.0513mS,5.20,5.12,,
2.0520mS,5.20,5.12,,
2.0527mS,5.20,5.12,,
2.0533mS,5.20,5.12,,
2.0540mS,5.20,5.12,,
2.0547mS,5.20,5.12,,
2.0553mS,5.20,5.12,,
2.0560mS,5.20,5.12,,
2.0567mS,5.20,5.12,,
2.0573mS,5.20,5.12,,
2.0580mS,5.20,5.12,,
2.0587mS,5.20,5.12,,
2.0593mS,5.20,5.12,,
2.0600mS,5.20,5.12,,
2.0607mS,5.20,5.12,,
2.0613mS,5.20,5.12,,
2.0620mS,5.20,5.12,,
2.0627mS,5.20,5.12,,
2.0633mS,5.20,5.12,,
2.0640mS,5.20,5.12,,
2.0647mS,5.20,5.12,,
2.0653mS,5.20,5.12,,
2.0660mS,5.20,5.12,,
2.0667mS,5.20,5.12,,
2.0673mS,5.20,5.12,,
2.0680mS,5.20,5.12,,
2.0687mS,5.20,5.12,,
2.0693mS,5.20,5.12,,
2.0700mS,5.20,5.12,,
2.0707mS,5.20,5.12,,
2.0713mS,5.20,5.12,,
2.0720mS,5.20,5.12,,
2.0727mS,5.20,5.12,,
2.0733mS,5.20,5.12,,
2.0740mS,5.20,5.12,,
2.0747mS,5.20,5.12,,
2.0753mS,5.20,5.12,,
2.0760mS,5.20,5.12,,
2.0767mS,5.20,5.12,,
2.0773mS,5.20,5.12,,
2.0780mS,5.20,5.12,,
2.0787mS,5.20,5.12,,
2.0793mS,5.20,5.12,,
2.0800mS,5.20,5.12,,
2.0807mS,5.20,5.12,,
2.0813mS,5.20,5.12,,
2.0820mS,5.20,5.12,,
2.0827mS,5.20,5.12,,
2.0833mS,5.16,5.12,,
2.0840mS,5.16,5.12,,
2.0847mS,5.20,5.12,,
2.0853mS,5.20,5.12,,
2.0860mS,5.20,5.12,,
2.0867mS,5.20,5.12,,
2.0873mS,5.20,5.08,,
2.0880mS,5.20,5.12,,
2.0887mS,5.20,5.12,,
2.0893mS,5.20,5.12,,
2.0900mS,5.20,5.12,,
2.0907mS,5.20,5.12,,
2.0913mS,5.20,5.12,,
2.0920mS,5.20,5.12,,
2.0927mS,5.20,5.12,,
2.0933mS,5.20,5.12,,
2.0940mS,5.20,5.12,,
2.0947mS,5.20,5.12,,
2.0953mS,5.20,5.12,,
2.0960mS,5.16,5.12,,
2.0967mS,5.20,5.12,,
2.0973mS,5.20,5.12,,
2.0980mS,5.16,5.12,,
2.0987mS,5.20,5.12,,
2.0993mS,5.20,5.12,,
2.1000mS,5.20,5.12,,
2.1007mS,5.16,5.12,,
2.1013mS,5.20,5.12,,
2.1020mS,5.20,5.12,,
2.1027mS,5.20,5.12,,
2.1033mS,5.20,5.12,,
2.1040mS,5.20,5.12,,
2.1047mS,5.20,5.12,,
2.1053mS,5.20,5.12,,
2.1060mS,5.16,5.12,,
2.1067mS,5.16,5.12,,
2.1073mS,5.16,5.12,,
2.1080mS,5.20,5.12,,
2.1087mS,5.20,5.12,,
2.1093mS,5.20,5.12,,
2.1100mS,5.20,5.12,,
2.1107mS,5.20,5.12,,
2.1113mS,5.20,5.12,,
2.1120mS,5.20,5.12,,
2.1127mS,5.20,5.12,,
2.1133mS,5.20,5.12,,
2.1140mS,5.20,5.12,,
2.1147mS,5.20,5.12,,
2.1153mS,5.20,5.12,,
2.1160mS,5.20,5.12,,
2.1167mS,5.20,5.12,,
2.1173mS,5.20,5.12,,
2.1180mS,5.20,5.12,,
2.1187mS,5.20,5.12,,
2.1193mS,5.20,5.12,,
2.1200mS,5.20,5.12,,
2.1207mS,5.20,5.12,,
2.1213mS,5.20,5.12,,
2.1220mS,5.20,5.12,,
2.1227mS,5.20,5.12,,
2.1233mS,5.20,5.12,,
2.1240mS,5.20,5.12,,
2.1247mS,5.16,5.08,,
2.1253mS,5.20,5.12,,
2.1260mS,5.16,5.12,,
2.1267mS,5.20,5.12,,
2.1273mS,5.16,5.12,,
2.1280mS,5.20,5.08,,
2.1287mS,5.20,5.12,,
2.1293mS,5.20,5.12,,
2.1300mS,5.16,5.12,,
2.1307mS,5.20,5.12,,
2.1313mS,5.20,5.12,,
2.1320mS,5.20,5.12,,
2.1327mS,5.20,5.12,,
2.1333mS,5.20,5.12,,
2.1340mS,5.20,5.08,,
2.1347mS,5.20,5.12,,
2.1353mS,5.20,5.12,,
2.1360mS,5.20,5.12,,
2.1367mS,5.20,5.12,,
2.1373mS,5.16,5.12,,
2.1380mS,5.20,5.12,,
2.1387mS,5.20,5.12,,
2.1393mS,5.20,5.12,,
2.1400mS,5.20,5.12,,
2.1407mS,5.20,5.12,,
2.1413mS,5.20,5.12,,
2.1420mS,5.20,5.12,,
2.1427mS,5.20,5.12,,
2.1433mS,5.16,5.12,,
2.1440mS,5.20,5.12,,
2.1447mS,5.20,5.12,,
2.1453mS,5.20,5.12,,
2.1460mS,5.20,5.12,,
2.1467mS,5.20,5.12,,
2.1473mS,5.20,5.12,,
2.1480mS,5.20,5.12,,
2.1487mS,5.20,5.12,,
2.1493mS,5.20,5.12,,
2.1500mS,5.20,5.12,,
2.1507mS,5.20,5.12,,
2.1513mS,5.16,5.12,,
2.1520mS,5.20,5.12,,
2.1527mS,5.20,5.12,,
2.1533mS,5.20,5.12,,
2.1540mS,5.20,5.12,,
2.1547mS,5.20,5.12,,
2.1553mS,5.20,5.12,,
2.1560mS,5.20,5.12,,
2.1567mS,5.20,5.12,,
2.1573mS,5.20,5.12,,
2.1580mS,5.20,5.12,,
2.1587mS,5.20,5.12,,
2.1593mS,5.20,5.12,,
2.1600mS,5.20,5.12,,
2.1607mS,5.20,5.12,,
2.1613mS,5.20,5.12,,
2.1620mS,5.20,5.12,,
2.1627mS,5.20,5.12,,
2.1633mS,5.20,5.12,,
2.1640mS,5.20,5.12,,
2.1647mS,5.20,5.12,,
2.1653mS,5.20,5.12,,
2.1660mS,5.20,5.12,,
2.1667mS,5.20,5.12,,
2.1673mS,5.20,5.12,,
2.1680mS,5.20,5.12,,
2.1687mS,5.20,5.12,,
2.1693mS,5.20,5.12,,
2.1700mS,5.20,5.12,,
2.1707mS,5.20,5.12,,
2.1713mS,5.20,5.12,,
2.1720mS,5.20,5.12,,
2.1727mS,5.20,5.12,,
2.1733mS,5.20,5.12,,
2.1740mS,5.20,5.12,,
2.1747mS,5.20,5.12,,
2.1753mS,5.20,5.12,,
2.1760mS,5.20,5.12,,
2.1767mS,5.20,5.12,,
2.1773mS,5.20,5.12,,
2.1780mS,5.20,5.12,,
2.1787mS,5.20,5.12,,
2.1793mS,5.20,5.12,,
2.1800mS,5.20,5.12,,
2.1807mS,5.20,5.12,,
2.1813mS,5.20,5.12,,
2.1820mS,5.20,5.12,,
2.1827mS,5.16,5.12,,
2.1833mS,5.20,5.12,,
2.1840mS,5.20,5.12,,
2.1847mS,5.20,5.12,,
2.1853mS,5.16,5.12,,
2.1860mS,5.20,5.12,,
2.1867mS,5.20,5.12,,
2.1873mS,5.20,5.12,,
2.1880mS,5.20,5.12,,
2.1887mS,5.16,5.08,,
2.1893mS,5.20,5.12,,
2.1900mS,5.20,5.12,,
2.1907mS,5.20,5.12,,
2.1913mS,5.20,5.12,,
2.1920mS,5.16,5.08,,
2.1927mS,5.20,5.12,,
2.1933mS,5.20,5.12,,
2.1940mS,5.20,5.12,,
2.1947mS,5.20,5.12,,
2.1953mS,5.20,5.12,,
2.1960mS,5.20,5.12,,
2.1967mS,5.20,5.12,,
2.1973mS,5.20,5.12,,
2.1980mS,5.16,5.12,,
2.1987mS,5.20,5.12,,
2.1993mS,5.20,5.12,,
2.2000mS,5.20,5.12,,
2.2007mS,5.20,5.12,,
2.2013mS,5.20,5.12,,
2.2020mS,5.20,5.12,,
2.2027mS,5.20,5.12,,
2.2033mS,5.20,5.12,,
2.2040mS,5.20,5.12,,
2.2047mS,5.20,5.12,,
2.2053mS,5.20,5.16,,
2.2060mS,5.20,5.12,,
2.2067mS,5.20,5.12,,
2.2073mS,5.20,5.12,,
2.2080mS,5.20,5.12,,
2.2087mS,5.20,5.12,,
2.2093mS,5.20,5.12,,
2.2100mS,5.20,5.12,,
2.2107mS,5.16,5.12,,
2.2113mS,5.20,5.12,,
2.2120mS,5.20,5.12,,
2.2127mS,5.20,5.12,,
2.2133mS,5.20,5.12,,
2.2140mS,5.20,5.12,,
2.2147mS,5.16,5.12,,
2.2153mS,5.20,5.12,,
2.2160mS,5.20,5.12,,
2.2167mS,5.20,5.12,,
2.2173mS,5.20,5.12,,
2.2180mS,5.20,5.12,,
2.2187mS,5.20,5.12,,
2.2193mS,5.20,5.12,,
2.2200mS,5.20,5.12,,
2.2207mS,5.20,5.12,,
2.2213mS,5.20,5.12,,
2.2220mS,5.20,5.12,,
2.2227mS,5.20,5.12,,
2.2233mS,5.20,5.12,,
2.2240mS,5.20,5.12,,
2.2247mS,5.20,5.12,,
2.2253mS,5.20,5.12,,
2.2260mS,5.20,5.12,,
2.2267mS,5.20,5.12,,
2.2273mS,5.20,5.12,,
2.2280mS,5.20,5.12,,
2.2287mS,5.20,5.12,,
2.2293mS,5.16,5.12,,
2.2300mS,5.20,5.12,,
2.2307mS,5.16,5.12,,
2.2313mS,5.20,5.12,,
2.2320mS,5.20,5.12,,
2.2327mS,5.16,5.12,,
2.2333mS,5.20,5.12,,
2.2340mS,5.20,5.12,,
2.2347mS,5.20,5.12,,
2.2353mS,5.20,5.12,,
2.2360mS,5.20,5.12,,
2.2367mS,5.20,5.12,,
2.2373mS,5.20,5.12,,
2.2380mS,5.20,5.12,,
2.2387mS,5.20,5.12,,
2.2393mS,5.20,5.12,,
2.2400mS,5.20,5.12,,
2.2407mS,5.20,5.12,,
2.2413mS,5.20,5.12,,
2.2420mS,5.20,5.12,,
2.2427mS,5.20,5.12,,
2.2433mS,5.20,5.12,,
2.2440mS,5.20,5.12,,
2.2447mS,5.20,5.12,,
2.2453mS,5.20,5.12,,
2.2460mS,5.20,5.12,,
2.2467mS,5.20,5.12,,
2.2473mS,5.20,5.12,,
2.2480mS,5.20,5.12,,
2.2487mS,5.20,5.12,,
2.2493mS,5.20,5.12,,
2.2500mS,5.20,5.12,,
2.2507mS,5.20,5.12,,
2.2513mS,5.20,5.12,,
2.2520mS,5.20,5.12,,
2.2527mS,5.20,5.12,,
2.2533mS,5.20,5.12,,
2.2540mS,5.20,5.12,,
2.2547mS,5.16,5.12,,
2.2553mS,5.20,5.12,,
2.2560mS,5.20,5.12,,
2.2567mS,5.20,5.12,,
2.2573mS,5.20,5.12,,
2.2580mS,5.20,5.12,,
2.2587mS,5.20,5.12,,
2.2593mS,5.20,5.12,,
2.2600mS,5.20,5.12,,
2.2607mS,5.20,5.12,,
2.2613mS,5.20,5.12,,
2.2620mS,5.20,5.12,,
2.2627mS,5.20,5.12,,
2.2633mS,5.20,5.12,,
2.2640mS,5.20,5.12,,
2.2647mS,5.20,5.12,,
2.2653mS,5.16,5.12,,
2.2660mS,5.20,5.12,,
2.2667mS,5.20,5.12,,
2.2673mS,5.20,5.12,,
2.2680mS,5.20,5.12,,
2.2687mS,5.20,5.12,,
2.2693mS,5.20,5.12,,
2.2700mS,5.20,5.12,,
2.2707mS,5.20,5.12,,
2.2713mS,5.20,5.12,,
2.2720mS,5.20,5.12,,
2.2727mS,5.20,5.12,,
2.2733mS,5.20,5.12,,
2.2740mS,5.20,5.12,,
2.2747mS,5.20,5.12,,
2.2753mS,5.20,5.12,,
2.2760mS,5.20,5.12,,
2.2767mS,5.20,5.12,,
2.2773mS,5.20,5.12,,
2.2780mS,5.20,5.12,,
2.2787mS,5.20,5.12,,
2.2793mS,5.20,5.12,,
2.2800mS,5.20,5.12,,
2.2807mS,5.20,5.12,,
2.2813mS,5.20,5.12,,
2.2820mS,5.20,5.12,,
2.2827mS,5.16,5.12,,
2.2833mS,5.20,5.12,,
2.2840mS,5.20,5.12,,
2.2847mS,5.20,5.12,,
2.2853mS,5.20,5.12,,
2.2860mS,5.20,5.12,,
2.2867mS,5.20,5.12,,
2.2873mS,5.20,5.12,,
2.2880mS,5.20,5.12,,
2.2887mS,5.20,5.12,,
2.2893mS,5.20,5.12,,
2.2900mS,5.20,5.12,,
2.2907mS,5.20,5.12,,
2.2913mS,5.20,5.12,,
2.2920mS,5.20,5.12,,
2.2927mS,5.20,5.12,,
2.2933mS,5.20,5.12,,
2.2940mS,5.20,5.12,,
2.2947mS,5.20,5.12,,
2.2953mS,5.20,5.12,,
2.2960mS,5.20,5.12,,
2.2967mS,5.20,5.12,,
2.2973mS,5.20,5.12,,
2.2980mS,5.20,5.12,,
2.2987mS,5.20,5.12,,
2.2993mS,5.20,5.12,,
2.3000mS,5.20,5.12,,
2.3007mS,5.20,5.12,,
2.3013mS,5.20,5.12,,
2.3020mS,5.16,5.12,,
2.3027mS,5.20,5.12,,
2.3033mS,5.20,5.12,,
2.3040mS,5.20,5.12,,
2.3047mS,5.20,5.12,,
2.3053mS,5.20,5.12,,
2.3060mS,5.20,5.12,,
2.3067mS,5.20,5.12,,
2.3073mS,5.20,5.12,,
2.3080mS,5.20,5.12,,
2.3087mS,5.20,5.12,,
2.3093mS,5.20,5.12,,
2.3100mS,5.20,5.12,,
2.3107mS,5.20,5.12,,
2.3113mS,5.20,5.12,,
2.3120mS,5.20,5.12,,
2.3127mS,5.20,5.12,,
2.3133mS,5.20,5.12,,
2.3140mS,5.20,5.12,,
2.3147mS,5.20,5.12,,
2.3153mS,5.20,5.12,,
2.3160mS,5.20,5.12,,
2.3167mS,5.20,5.12,,
2.3173mS,5.20,5.12,,
2.3180mS,5.20,5.12,,
2.3187mS,5.20,5.12,,
2.3193mS,5.20,5.12,,
2.3200mS,5.20,5.12,,
2.3207mS,5.20,5.12,,
2.3213mS,5.20,5.08,,
2.3220mS,5.20,5.12,,
2.3227mS,5.20,5.12,,
2.3233mS,5.20,5.12,,
2.3240mS,5.20,5.12,,
2.3247mS,5.20,5.12,,
2.3253mS,5.16,5.12,,
2.3260mS,5.20,5.12,,
2.3267mS,5.16,5.12,,
2.3273mS,5.20,5.08,,
2.3280mS,5.20,5.12,,
2.3287mS,5.20,5.12,,
2.3293mS,5.20,5.12,,
2.3300mS,5.20,5.12,,
2.3307mS,5.20,5.08,,
2.3313mS,5.20,5.12,,
2.3320mS,5.20,5.12,,
2.3327mS,5.20,5.12,,
2.3333mS,5.20,5.12,,
2.3340mS,5.20,5.08,,
2.3347mS,5.20,5.12,,
2.3353mS,5.20,5.12,,
2.3360mS,5.20,5.12,,
2.3367mS,5.20,5.12,,
2.3373mS,5.20,5.12,,
2.3380mS,5.20,5.12,,
2.3387mS,5.20,5.12,,
2.3393mS,5.20,5.12,,
2.3400mS,5.20,5.12,,
2.3407mS,5.20,5.12,,
2.3413mS,5.20,5.12,,
2.3420mS,5.20,5.12,,
2.3427mS,5.20,5.12,,
2.3433mS,5.20,5.12,,
2.3440mS,5.20,5.12,,
2.3447mS,5.20,5.12,,
2.3453mS,5.20,5.12,,
2.3460mS,5.20,5.08,,
2.3467mS,5.20,5.12,,
2.3473mS,5.20,5.12,,
2.3480mS,5.20,5.12,,
2.3487mS,5.20,5.12,,
2.3493mS,5.16,5.12,,
2.3500mS,5.20,5.12,,
2.3507mS,5.20,5.12,,
2.3513mS,5.20,5.12,,
2.3520mS,5.20,5.12,,
2.3527mS,5.20,5.08,,
2.3533mS,5.20,5.12,,
2.3540mS,5.20,5.12,,
2.3547mS,5.20,5.12,,
2.3553mS,5.20,5.12,,
2.3560mS,5.20,5.12,,
2.3567mS,5.20,5.12,,
2.3573mS,5.20,5.12,,
2.3580mS,5.20,5.12,,
2.3587mS,5.20,5.12,,
2.3593mS,5.20,5.12,,
2.3600mS,5.20,5.12,,
2.3607mS,5.20,5.12,,
2.3613mS,5.20,5.12,,
2.3620mS,5.20,5.12,,
2.3627mS,5.20,5.12,,
2.3633mS,5.20,5.12,,
2.3640mS,5.20,5.12,,
2.3647mS,5.20,5.12,,
2.3653mS,5.20,5.12,,
2.3660mS,5.16,5.12,,
2.3667mS,5.20,5.12,,
2.3673mS,5.20,5.12,,
2.3680mS,5.16,5.08,,
2.3687mS,5.20,5.12,,
2.3693mS,5.20,5.12,,
2.3700mS,5.20,5.12,,
2.3707mS,5.20,5.12,,
2.3713mS,5.20,5.08,,
2.3720mS,5.20,5.12,,
2.3727mS,5.20,5.12,,
2.3733mS,5.20,5.12,,
2.3740mS,5.20,5.12,,
2.3747mS,5.20,5.12,,
2.3753mS,5.20,5.12,,
2.3760mS,5.20,5.12,,
2.3767mS,5.20,5.12,,
2.3773mS,5.20,5.12,,
2.3780mS,5.20,5.12,,
2.3787mS,5.20,5.12,,
2.3793mS,5.20,5.12,,
2.3800mS,5.20,5.12,,
2.3807mS,5.20,5.12,,
2.3813mS,5.20,5.12,,
2.3820mS,5.20,5.12,,
2.3827mS,5.20,5.12,,
2.3833mS,5.20,5.12,,
2.3840mS,5.20,5.12,,
2.3847mS,5.20,5.12,,
2.3853mS,5.20,5.12,,
2.3860mS,5.20,5.12,,
2.3867mS,5.20,5.12,,
2.3873mS,5.20,5.12,,
2.3880mS,5.20,5.12,,
2.3887mS,5.20,5.12,,
2.3893mS,5.20,5.12,,
2.3900mS,5.20,5.12,,
2.3907mS,5.20,5.12,,
2.3913mS,5.20,5.12,,
2.3920mS,5.20,5.12,,
2.3927mS,5.20,5.12,,
2.3933mS,5.20,5.12,,
2.3940mS,5.20,5.12,,
2.3947mS,5.20,5.12,,
2.3953mS,5.20,5.12,,
2.3960mS,5.20,5.12,,
2.3967mS,5.20,5.12,,
2.3973mS,5.20,5.12,,
2.3980mS,5.20,5.12,,
2.3987mS,5.20,5.12,,
2.3993mS,5.20,5.12,,
2.4000mS,5.20,5.12,,
2.4007mS,5.20,5.12,,
2.4013mS,5.20,5.12,,
2.4020mS,5.20,5.12,,
2.4027mS,5.20,5.12,,
2.4033mS,5.20,5.12,,
2.4040mS,5.20,5.12,,
2.4047mS,5.20,5.12,,
2.4053mS,5.20,5.12,,
2.4060mS,5.20,5.12,,
2.4067mS,5.20,5.12,,
2.4073mS,5.20,5.12,,
2.4080mS,5.16,5.12,,
2.4087mS,5.16,5.12,,
2.4093mS,5.20,5.12,,
2.4100mS,5.20,5.12,,
2.4107mS,5.20,5.12,,
2.4113mS,5.16,5.12,,
2.4120mS,5.20,5.08,,
2.4127mS,5.20,5.12,,
2.4133mS,5.20,5.12,,
2.4140mS,5.20,5.12,,
2.4147mS,5.20,5.12,,
2.4153mS,5.20,5.12,,
2.4160mS,5.20,5.16,,
2.4167mS,5.20,5.08,,
2.4173mS,5.20,5.12,,
2.4180mS,5.20,5.12,,
2.4187mS,5.20,5.12,,
2.4193mS,5.20,5.12,,
2.4200mS,5.20,5.12,,
2.4207mS,5.20,5.12,,
2.4213mS,5.20,5.12,,
2.4220mS,5.20,5.12,,
2.4227mS,5.20,5.12,,
2.4233mS,5.20,5.12,,
2.4240mS,5.20,5.12,,
2.4247mS,5.20,5.12,,
2.4253mS,5.20,5.12,,
2.4260mS,5.20,5.12,,
2.4267mS,5.20,5.12,,
2.4273mS,5.20,5.12,,
2.4280mS,5.20,5.12,,
2.4287mS,5.20,5.12,,
2.4293mS,5.20,5.12,,
2.4300mS,5.20,5.12,,
2.4307mS,5.20,5.12,,
2.4313mS,5.20,5.12,,
2.4320mS,5.20,5.12,,
2.4327mS,5.20,5.12,,
2.4333mS,5.20,5.12,,
2.4340mS,5.16,5.12,,
2.4347mS,5.20,5.12,,
2.4353mS,5.20,5.12,,
2.4360mS,5.20,5.12,,
2.4367mS,5.16,5.12,,
2.4373mS,5.20,5.12,,
2.4380mS,5.20,5.12,,
2.4387mS,5.20,5.12,,
2.4393mS,5.20,5.12,,
2.4400mS,5.20,5.12,,
2.4407mS,5.20,5.12,,
2.4413mS,5.20,5.12,,
2.4420mS,5.20,5.12,,
2.4427mS,5.20,5.12,,
2.4433mS,5.20,5.12,,
2.4440mS,5.20,5.12,,
2.4447mS,5.20,5.12,,
2.4453mS,5.20,5.12,,
2.4460mS,5.20,5.12,,
2.4467mS,5.20,5.12,,
2.4473mS,5.20,5.12,,
2.4480mS,5.20,5.12,,
2.4487mS,5.20,5.12,,
2.4493mS,5.20,5.12,,
2.4500mS,5.20,5.12,,
2.4507mS,5.20,5.12,,
2.4513mS,5.20,5.12,,
2.4520mS,5.20,5.12,,
2.4527mS,5.16,5.12,,
2.4533mS,5.20,5.12,,
2.4540mS,5.20,5.12,,
2.4547mS,5.20,5.12,,
2.4553mS,5.20,5.12,,
2.4560mS,5.20,5.12,,
2.4567mS,5.20,5.12,,
2.4573mS,5.20,5.12,,
2.4580mS,5.20,5.12,,
2.4587mS,5.20,5.12,,
2.4593mS,5.16,5.08,,
2.4600mS,5.20,5.12,,
2.4607mS,5.20,5.12,,
2.4613mS,5.20,5.12,,
2.4620mS,5.20,5.12,,
2.4627mS,5.20,5.12,,
2.4633mS,5.20,5.12,,
2.4640mS,5.20,5.12,,
2.4647mS,5.20,5.12,,
2.4653mS,5.20,5.12,,
2.4660mS,5.20,5.12,,
2.4667mS,5.20,5.12,,
2.4673mS,5.20,5.12,,
2.4680mS,5.20,5.12,,
2.4687mS,5.20,5.12,,
2.4693mS,5.20,5.12,,
2.4700mS,5.20,5.12,,
2.4707mS,5.20,5.12,,
2.4713mS,5.20,5.12,,
2.4720mS,5.20,5.12,,
2.4727mS,5.20,5.12,,
2.4733mS,5.20,5.12,,
2.4740mS,5.16,5.12,,
2.4747mS,5.20,5.12,,
2.4753mS,5.20,5.12,,
2.4760mS,5.20,5.12,,
2.4767mS,5.20,5.12,,
2.4773mS,5.20,5.12,,
2.4780mS,5.16,5.12,,
2.4787mS,5.20,5.12,,
2.4793mS,5.20,5.12,,
2.4800mS,5.20,5.12,,
2.4807mS,5.20,5.12,,
2.4813mS,5.20,5.12,,
2.4820mS,5.20,5.12,,
2.4827mS,5.20,5.12,,
2.4833mS,5.20,5.12,,
2.4840mS,5.20,5.12,,
2.4847mS,5.20,5.12,,
2.4853mS,5.20,5.12,,
2.4860mS,5.20,5.12,,
2.4867mS,5.20,5.12,,
2.4873mS,5.20,5.12,,
2.4880mS,5.20,5.12,,
2.4887mS,5.20,5.12,,
2.4893mS,5.20,5.12,,
2.4900mS,5.20,5.12,,
2.4907mS,5.20,5.12,,
2.4913mS,5.20,5.12,,
2.4920mS,5.20,5.12,,
2.4927mS,5.20,5.12,,
2.4933mS,5.20,5.12,,
2.4940mS,5.20,5.12,,
2.4947mS,5.20,5.12,,
2.4953mS,5.20,5.12,,
2.4960mS,5.20,5.12,,
2.4967mS,5.20,5.12,,
2.4973mS,5.20,5.12,,
2.4980mS,5.20,5.12,,
2.4987mS,5.20,5.12,,
2.4993mS,5.20,5.12,,
2.5000mS,5.20,5.12,,
2.5007mS,5.20,5.12,,
2.5013mS,5.20,5.12,,
2.5020mS,5.20,5.12,,
2.5027mS,5.20,5.12,,
2.5033mS,5.20,5.12,,
2.5040mS,5.20,5.12,,
2.5047mS,5.20,5.12,,
2.5053mS,5.20,5.12,,
2.5060mS,5.20,5.12,,
2.5067mS,5.20,5.08,,
2.5073mS,5.20,5.12,,
2.5080mS,5.20,5.12,,
2.5087mS,5.20,5.12,,
2.5093mS,5.20,5.12,,
2.5100mS,5.20,5.08,,
2.5107mS,5.16,5.12,,
2.5113mS,5.20,5.12,,
2.5120mS,5.20,5.12,,
2.5127mS,5.20,5.12,,
2.5133mS,5.20,5.12,,
2.5140mS,5.20,5.12,,
2.5147mS,5.20,5.12,,
2.5153mS,5.20,5.12,,
2.5160mS,5.20,5.12,,
2.5167mS,5.20,5.12,,
2.5173mS,5.20,5.12,,
2.5180mS,5.20,5.12,,
2.5187mS,5.16,5.12,,
2.5193mS,5.20,5.12,,
2.5200mS,5.20,5.12,,
2.5207mS,5.20,5.12,,
2.5213mS,5.20,5.12,,
2.5220mS,5.20,5.12,,
2.5227mS,5.20,5.12,,
2.5233mS,5.16,5.12,,
2.5240mS,5.20,5.12,,
2.5247mS,5.20,5.12,,
2.5253mS,5.16,5.12,,
2.5260mS,5.20,5.12,,
2.5267mS,5.20,5.12,,
2.5273mS,5.20,5.12,,
2.5280mS,5.20,5.12,,
2.5287mS,5.20,5.12,,
2.5293mS,5.20,5.12,,
2.5300mS,5.20,5.12,,
2.5307mS,5.20,5.12,,
2.5313mS,5.20,5.12,,
2.5320mS,5.16,5.12,,
2.5327mS,5.20,5.12,,
2.5333mS,5.20,5.12,,
2.5340mS,5.20,5.12,,
2.5347mS,5.20,5.12,,
2.5353mS,5.20,5.12,,
2.5360mS,5.20,5.12,,
2.5367mS,5.20,5.12,,
2.5373mS,5.20,5.12,,
2.5380mS,5.20,5.12,,
2.5387mS,5.20,5.12,,
2.5393mS,5.20,5.12,,
2.5400mS,5.20,5.12,,
2.5407mS,5.20,5.12,,
2.5413mS,5.20,5.12,,
2.5420mS,5.20,5.12,,
2.5427mS,5.20,5.12,,
2.5433mS,5.20,5.12,,
2.5440mS,5.20,5.12,,
2.5447mS,5.20,5.12,,
2.5453mS,5.20,5.12,,
2.5460mS,5.20,5.12,,
2.5467mS,5.16,5.12,,
2.5473mS,5.16,5.08,,
2.5480mS,5.20,5.12,,
2.5487mS,5.16,5.12,,
2.5493mS,5.20,5.12,,
2.5500mS,5.20,5.12,,
2.5507mS,5.16,5.08,,
2.5513mS,5.20,5.12,,
2.5520mS,5.20,5.12,,
2.5527mS,5.20,5.12,,
2.5533mS,5.20,5.12,,
2.5540mS,5.20,5.12,,
2.5547mS,5.20,5.12,,
2.5553mS,5.20,5.12,,
2.5560mS,5.20,5.12,,
2.5567mS,5.20,5.12,,
2.5573mS,5.20,5.12,,
2.5580mS,5.20,5.12,,
2.5587mS,5.20,5.12,,
2.5593mS,5.20,5.12,,
2.5600mS,5.20,5.12,,
2.5607mS,5.20,5.12,,
2.5613mS,5.20,5.12,,
2.5620mS,5.20,5.12,,
2.5627mS,5.20,5.12,,
2.5633mS,5.20,5.12,,
2.5640mS,5.20,5.12,,
2.5647mS,5.20,5.12,,
2.5653mS,5.20,5.12,,
2.5660mS,5.16,5.12,,
2.5667mS,5.20,5.12,,
2.5673mS,5.20,5.16,,
2.5680mS,5.20,5.12,,
2.5687mS,5.20,5.12,,
2.5693mS,5.20,5.08,,
2.5700mS,5.20,5.12,,
2.5707mS,5.20,5.12,,
2.5713mS,5.20,5.12,,
2.5720mS,5.20,5.12,,
2.5727mS,5.20,5.12,,
2.5733mS,5.20,5.12,,
2.5740mS,5.20,5.12,,
2.5747mS,5.20,5.12,,
2.5753mS,5.20,5.12,,
2.5760mS,5.20,5.12,,
2.5767mS,5.20,5.12,,
2.5773mS,5.20,5.12,,
2.5780mS,5.20,5.12,,
2.5787mS,5.20,5.12,,
2.5793mS,5.20,5.12,,
2.5800mS,5.20,5.08,,
2.5807mS,5.20,5.12,,
2.5813mS,5.16,5.12,,
2.5820mS,5.20,5.12,,
2.5827mS,5.20,5.12,,
2.5833mS,5.20,5.12,,
2.5840mS,5.20,5.12,,
2.5847mS,5.20,5.12,,
2.5853mS,5.20,5.12,,
2.5860mS,5.20,5.12,,
2.5867mS,5.20,5.12,,
2.5873mS,5.20,5.12,,
2.5880mS,5.20,5.12,,
2.5887mS,5.20,5.12,,
2.5893mS,5.20,5.12,,
2.5900mS,5.16,5.12,,
2.5907mS,5.20,5.12,,
2.5913mS,5.20,5.12,,
2.5920mS,5.20,5.12,,
2.5927mS,5.20,5.12,,
2.5933mS,5.20,5.12,,
2.5940mS,5.20,5.12,,
2.5947mS,5.20,5.12,,
2.5953mS,5.20,5.12,,
2.5960mS,5.20,5.08,,
2.5967mS,5.20,5.12,,
2.5973mS,5.16,5.12,,
2.5980mS,5.20,5.12,,
2.5987mS,5.20,5.12,,
2.5993mS,5.20,5.12,,
2.6000mS,5.20,5.12,,
2.6007mS,5.20,5.12,,
2.6013mS,5.20,5.08,,
2.6020mS,5.20,5.12,,
2.6027mS,5.20,5.12,,
2.6033mS,5.20,5.12,,
2.6040mS,5.20,5.12,,
2.6047mS,5.20,5.12,,
2.6053mS,5.20,5.12,,
2.6060mS,5.20,5.12,,
2.6067mS,5.20,5.12,,
2.6073mS,5.20,5.12,,
2.6080mS,5.20,5.12,,
2.6087mS,5.20,5.12,,
2.6093mS,5.20,5.12,,
2.6100mS,5.20,5.12,,
2.6107mS,5.20,5.12,,
2.6113mS,5.20,5.12,,
2.6120mS,5.20,5.12,,
2.6127mS,5.20,5.12,,
2.6133mS,5.20,5.12,,
2.6140mS,5.20,5.12,,
2.6147mS,5.20,5.12,,
2.6153mS,5.16,5.12,,
2.6160mS,5.20,5.12,,
2.6167mS,5.20,5.12,,
2.6173mS,5.20,5.12,,
2.6180mS,5.20,5.12,,
2.6187mS,5.20,5.12,,
2.6193mS,5.20,5.12,,
2.6200mS,5.20,5.12,,
2.6207mS,5.20,5.12,,
2.6213mS,5.20,5.12,,
2.6220mS,5.20,5.12,,
2.6227mS,5.20,5.12,,
2.6233mS,5.20,5.12,,
2.6240mS,5.20,5.12,,
2.6247mS,5.20,5.12,,
2.6253mS,5.20,5.12,,
2.6260mS,5.20,5.12,,
2.6267mS,5.20,5.12,,
2.6273mS,5.20,5.12,,
2.6280mS,5.20,5.12,,
2.6287mS,5.20,5.12,,
2.6293mS,5.16,5.12,,
2.6300mS,5.20,5.12,,